<svg width="102" height="102" viewBox="0 0 102 102" fill="none" xmlns="http://www.w3.org/2000/svg">
<g clip-path="url(#clip0_1142_1299)">
<path fill-rule="evenodd" clip-rule="evenodd" d="M28 56H12V92L28 89V56ZM19.2188 88.625C22.7223 88.625 25.5625 85.7848 25.5625 82.2812C25.5625 78.7777 22.7223 75.9375 19.2188 75.9375C15.7152 75.9375 12.875 78.7777 12.875 82.2812C12.875 85.7848 15.7152 88.625 19.2188 88.625Z" fill="#674380"/>
<mask id="mask0_1142_1299" style="mask-type:luminance" maskUnits="userSpaceOnUse" x="9" y="53" width="22" height="43">
<path d="M31 53H9V96H31V53Z" fill="white"/>
<path fill-rule="evenodd" clip-rule="evenodd" d="M28 56H12V92L28 89V56ZM19.2188 88.625C22.7223 88.625 25.5625 85.7848 25.5625 82.2812C25.5625 78.7777 22.7223 75.9375 19.2188 75.9375C15.7152 75.9375 12.875 78.7777 12.875 82.2812C12.875 85.7848 15.7152 88.625 19.2188 88.625Z" fill="#674380"/>
</mask>
<g mask="url(#mask0_1142_1299)">
<path d="M12 56V53H9V56H12ZM28 56H31V53H28V56ZM12 92H9V95.6148L12.5529 94.9486L12 92ZM28 89L28.5529 91.9486L31 91.4898V89H28ZM12 59H28V53H12V59ZM15 92V56H9V92H15ZM27.4471 86.0514L11.4471 89.0514L12.5529 94.9486L28.5529 91.9486L27.4471 86.0514ZM25 56V89H31V56H25ZM22.5625 82.2812C22.5625 84.128 21.0655 85.625 19.2188 85.625V91.625C24.3792 91.625 28.5625 87.4417 28.5625 82.2812H22.5625ZM19.2188 78.9375C21.0655 78.9375 22.5625 80.4345 22.5625 82.2812H28.5625C28.5625 77.1208 24.3792 72.9375 19.2188 72.9375V78.9375ZM15.875 82.2812C15.875 80.4345 17.372 78.9375 19.2188 78.9375V72.9375C14.0583 72.9375 9.875 77.1208 9.875 82.2812H15.875ZM19.2188 85.625C17.372 85.625 15.875 84.128 15.875 82.2812H9.875C9.875 87.4417 14.0583 91.625 19.2188 91.625V85.625Z" fill="#674380"/>
</g>
<path fill-rule="evenodd" clip-rule="evenodd" d="M34 5H26V15H16V23H26V33H34V23H44V15H34V5Z" fill="#432C53"/>
<path fill-rule="evenodd" clip-rule="evenodd" d="M92 0H84V10H74V18H84V28H92V18H102V10H92V0Z" fill="#432C53"/>
<path fill-rule="evenodd" clip-rule="evenodd" d="M67 30H59V40H49V48H59V58H67V48H77V40H67V30Z" fill="#432C53"/>
<path d="M29.125 61.25C32.875 58.625 40 57.375 45.625 62.5C57.525 62.5 62.6667 62.5 63.75 62.5C65.2083 62.5416 68.125 63.7251 68.125 68.1251C68.125 70.8752 65.5 71.7501 63.75 72.5L45.625 73.1251C45.625 73.1251 63.75 73.75 69.25 72.5C74.75 71.25 83.25 62.5 83.25 62.5C86 59.6251 89.7707 58.2306 92 60.625C94.2293 63.0194 93.2438 66.6313 89 70.8751C84.3125 75.5626 74.625 83.6251 69.25 87.375C63.875 91.1249 49.425 92.475 29.125 84.875" fill="white"/>
<path d="M29.125 61.25C32.875 58.625 40 57.375 45.625 62.5C57.525 62.5 62.6667 62.5 63.75 62.5C65.2083 62.5416 68.125 63.7251 68.125 68.1251C68.125 70.8752 65.5 71.7501 63.75 72.5L45.625 73.1251C45.625 73.1251 63.75 73.75 69.25 72.5C74.75 71.25 83.25 62.5 83.25 62.5C86 59.6251 89.7707 58.2306 92 60.625C94.2293 63.0194 93.2438 66.6313 89 70.8751C84.3125 75.5626 74.625 83.6251 69.25 87.375C63.875 91.1249 49.425 92.475 29.125 84.875" stroke="#674380" stroke-width="3"/>
</g>
<defs>
<clipPath id="clip0_1142_1299">
<rect width="102" height="102" fill="white"/>
</clipPath>
</defs>
</svg>
