<svg width="102" height="102" viewBox="0 0 102 102" fill="none" xmlns="http://www.w3.org/2000/svg">
<g clip-path="url(#clip0_1142_1225)">
<mask id="mask0_1142_1225" style="mask-type:luminance" maskUnits="userSpaceOnUse" x="0" y="0" width="102" height="102">
<path d="M102 0H0V102H102V0Z" fill="white"/>
</mask>
<g mask="url(#mask0_1142_1225)">
<path d="M66 84V91.3448V96H48V84H66Z" fill="white" stroke="#432C53" stroke-width="3"/>
<path d="M79.2428 92.3613C82.2466 92.3613 84.6816 94.7963 84.6816 97.8C84.6816 99.7038 83.1383 101.247 81.2345 101.247H33.7632C31.3094 101.247 29.3203 99.2579 29.3203 96.8042C29.3203 94.3504 31.3095 92.3613 33.7632 92.3613H79.2428Z" fill="#432C53"/>
<path d="M18.25 29C15.3505 29 13 31.3505 13 34.25V76C13 80.4183 16.5817 84 21 84H90C94.4183 84 98 80.4183 98 76V63.0001V37C98 32.5817 94.4183 29 90 29H54.75" fill="white"/>
<path d="M18.25 29C15.3505 29 13 31.3505 13 34.25V76C13 80.4183 16.5817 84 21 84H90C94.4183 84 98 80.4183 98 76V63.0001V37C98 32.5817 94.4183 29 90 29H54.75" stroke="#432C53" stroke-width="3"/>
<path d="M59.9883 27.3567C60.883 21.0552 56.5 15.2215 50.1985 14.3268C49.5169 14.2301 48.8408 14.195 48.1758 14.2175L56.6449 33.968C58.3964 32.2541 59.6172 29.9704 59.9883 27.3567Z" fill="#432C53" stroke="#432C53" stroke-width="3"/>
<path d="M17.0117 47.991L22.5804 45.5254L32.0166 66.8379C32.6974 68.3756 32.0027 70.1742 30.465 70.855C28.9272 71.5359 27.1287 70.8412 26.4478 69.3034L17.0117 47.991Z" fill="white" stroke="#432C53" stroke-width="3"/>
<path d="M35.8556 10.9692L18.0156 30.0975L25.6582 47.3591L50.5166 43.97M35.8556 10.9692L43.1237 3.45117L60.5055 42.7098L50.5166 43.97M35.8556 10.9692L50.5166 43.97Z" fill="white"/>
<path d="M35.8556 10.9692L18.0156 30.0975L25.6582 47.3591L50.5166 43.97M35.8556 10.9692L43.1237 3.45117L60.5055 42.7098L50.5166 43.97M35.8556 10.9692L50.5166 43.97" stroke="#432C53" stroke-width="3"/>
<path d="M3.08723 41.7414C1.19717 37.7478 2.90243 32.9782 6.89603 31.0881L17.6882 25.9805L28.0439 47.8614L17.2517 52.9691C13.2581 54.8591 8.48841 53.1539 6.59836 49.1603L3.08723 41.7414Z" fill="#432C53"/>
<mask id="mask1_1142_1225" style="mask-type:alpha" maskUnits="userSpaceOnUse" x="13" y="29" width="85" height="54">
<path d="M15 74.6118V34.6248C15 32.6229 16.6513 31 18.6882 31H54.7588H89.5C93.0899 31 96 33.86 96 37.3882V62.2576V74.6118C96 78.1399 93.0898 81 89.5 81H21.5C17.9101 81 15 78.1399 15 74.6118Z" fill="#674380" stroke="#432C53" stroke-width="3"/>
</mask>
<g mask="url(#mask1_1142_1225)">
<path d="M78.9375 96.0625C94.0218 96.0625 106.25 83.8343 106.25 68.75C106.25 53.6657 94.0218 41.4375 78.9375 41.4375C63.8532 41.4375 51.625 53.6657 51.625 68.75C51.625 83.8343 63.8532 96.0625 78.9375 96.0625Z" fill="#674380"/>
</g>
<path d="M71.6363 60.8698C73.8217 60.3894 75.1902 58.2879 74.6931 56.176C74.1959 54.064 72.0213 52.7414 69.8359 53.2219C67.6505 53.7023 66.2819 55.8039 66.7791 57.9158C67.2762 60.0277 69.4509 61.3503 71.6363 60.8698Z" stroke="#FBFBFC" stroke-width="3"/>
<path d="M85.6597 76.7683C87.8451 76.2878 89.2137 74.1863 88.7165 72.0744C88.2194 69.9625 86.0447 68.6399 83.8594 69.1203C81.674 69.6008 80.3054 71.7023 80.8025 73.8142C81.2997 75.9261 83.4743 77.2487 85.6597 76.7683Z" stroke="#FBFBFC" stroke-width="3"/>
<path d="M83.899 55.5918L71.625 73.7493" stroke="#FBFBFC" stroke-width="3" stroke-linecap="round"/>
</g>
</g>
<defs>
<clipPath id="clip0_1142_1225">
<rect width="102" height="102" fill="white"/>
</clipPath>
</defs>
</svg>
