<svg width="103" height="102" viewBox="0 0 103 102" fill="none" xmlns="http://www.w3.org/2000/svg">
<path d="M52 74V97L65 63V61.5L52 74Z" fill="white"/>
<path d="M39 61.5L42.5 55L60.5 54L64 61.5L51.5 73.5L39 61.5Z" fill="white"/>
<path d="M42.0146 53.1094C42.208 55.2753 41.7825 59.9552 38.5337 61.3476ZM38.5337 61.3476C34.4726 63.088 13.7031 65.0605 13.7031 82.001C13.7031 95.5534 38.9204 97.6264 51.5291 96.9689V73.4147L38.5337 61.3476Z" fill="white"/>
<path d="M42.0146 53.1094C42.208 55.2753 41.7825 59.9552 38.5337 61.3476M38.5337 61.3476C34.4726 63.088 13.7031 65.0605 13.7031 82.001C13.7031 95.5534 38.9204 97.6264 51.5291 96.9689V73.4147L38.5337 61.3476Z" stroke="#432C53" stroke-width="3"/>
<path d="M61.3934 53.1094C61.2 55.2753 61.6254 59.9552 64.8743 61.3476ZM64.8743 61.3476C68.9354 63.088 89.7048 65.0605 89.7048 82.001C89.7048 95.5534 51.8789 96.9689 51.8789 96.9689M64.8743 61.3476C64.8743 61.3476 56.9539 68.7022 51.8789 73.4147Z" fill="white"/>
<path d="M61.3934 53.1094C61.2 55.2753 61.6254 59.9552 64.8743 61.3476M64.8743 61.3476C68.9354 63.088 89.7048 65.0605 89.7048 82.001C89.7048 95.5534 51.8789 96.9689 51.8789 96.9689M64.8743 61.3476C64.8743 61.3476 56.9539 68.7022 51.8789 73.4147" stroke="#432C53" stroke-width="3"/>
<path d="M33.1875 61.625L30.6445 71.9054" stroke="#674380" stroke-width="3"/>
<path d="M69.3977 34.9488C69.3977 46.3234 61.1379 55.5442 50.9489 55.5442C40.7598 55.5442 32.5 46.3234 32.5 34.9488C32.5 30.4734 33.7787 26.3314 35.9505 22.9533C39.2985 17.7457 40.3901 28.4957 50.0206 23.6361C59.187 19.8071 62.5992 17.7457 65.9472 22.9533C68.119 26.3314 69.3977 30.4734 69.3977 34.9488Z" fill="white" stroke="#432C53" stroke-width="3"/>
<path d="M50.9509 6C38.7113 6 28.7891 15.2209 28.7891 26.5954C28.7891 28.3002 29.0119 29.9566 29.4321 31.5408C29.6422 31.673 30.3 31.7375 31.25 30.9375C32.4375 29.9375 36.625 22.1875 37.6875 21.375C38.75 20.5625 41 25.375 45.8125 25.1875C50.625 25 60.6875 19.625 63.875 20.4375C66.425 21.0875 68.6875 27.7083 69.5 30.9375L72.4697 31.5408C72.8898 29.9566 73.1127 28.3002 73.1127 26.5954C73.1127 15.2209 63.1905 6 50.9509 6Z" fill="#432C53" stroke="#432C53" stroke-width="3"/>
<path d="M32.3131 29.7598C30.0397 30.8695 28.5391 32.7795 28.5391 34.9494C28.5391 37.1194 30.0397 39.0293 32.3131 40.139" fill="white"/>
<path d="M32.3131 29.7598C30.0397 30.8695 28.5391 32.7795 28.5391 34.9494C28.5391 37.1194 30.0397 39.0293 32.3131 40.139" stroke="#432C53" stroke-width="3"/>
<path d="M69.582 29.7598C71.8554 30.8695 73.3561 32.7795 73.3561 34.9494C73.3561 37.1194 71.8554 39.0293 69.582 40.139" fill="white"/>
<path d="M69.582 29.7598C71.8554 30.8695 73.3561 32.7795 73.3561 34.9494C73.3561 37.1194 71.8554 39.0293 69.582 40.139" stroke="#432C53" stroke-width="3"/>
<path d="M37.7821 82.6969C37.7821 75.7931 34.3404 72.6602 31.1683 72.6602C27.9963 72.6602 24.2635 76.1992 25.4828 84.5534" stroke="#674380" stroke-width="3"/>
<path d="M25.8014 87.3021C27.1113 87.3021 28.1732 86.2402 28.1732 84.9304C28.1732 83.6205 27.1113 82.5586 25.8014 82.5586C24.4916 82.5586 23.4297 83.6205 23.4297 84.9304C23.4297 86.2402 24.4916 87.3021 25.8014 87.3021Z" fill="#674380" stroke="#674380"/>
<path d="M39.9507 83.4792C39.9507 84.6769 38.9797 85.6479 37.782 85.6479C36.5842 85.6479 35.6133 84.6769 35.6133 83.4792C35.6133 82.2814 36.5842 81.3105 37.782 81.3105C38.9797 81.3105 39.9507 82.2814 39.9507 83.4792Z" fill="#674380" stroke="#674380"/>
<path d="M77.7539 78.7793C77.7539 81.3747 75.65 83.4786 73.0547 83.4786C70.4594 83.4786 68.3555 81.3747 68.3555 78.7793C68.3555 76.184 70.4594 74.0801 73.0547 74.0801C75.65 74.0801 77.7539 76.184 77.7539 78.7793Z" fill="#674380"/>
<path d="M73.0547 74.0809C70.4594 74.0809 68.3555 76.1848 68.3555 78.7801C68.3555 81.3755 70.4594 83.4794 73.0547 83.4794C75.65 83.4794 77.7539 81.3755 77.7539 78.7801C77.7539 76.1848 75.65 74.0809 73.0547 74.0809ZM73.0547 74.0809C73.5575 71.3445 73.5 64.125 69.25 61.75" stroke="#674380" stroke-width="3"/>
</svg>
