<svg width="150" height="52" viewBox="0 0 150 52" fill="none" xmlns="http://www.w3.org/2000/svg">
<g clip-path="url(#clip0_541_1489)">
<path fill-rule="evenodd" clip-rule="evenodd" d="M1.47949 15.4759C1.47949 12.6839 3.73717 10.8288 6.52916 11.175C10.3409 11.6303 10.2581 16.4429 7.43976 16.3978C8.13964 15.6452 7.48491 14.7309 6.80385 14.4486C6.27705 14.3847 5.00147 14.2116 4.84719 15.7054C4.80204 17.0073 6.00237 17.1052 6.52916 17.1691C8.17727 17.3799 9.83289 17.5454 11.4885 17.6696C12.8695 17.7712 14.2429 17.8615 15.6276 17.9142C17.0123 17.9669 18.3631 18.0158 19.7366 18.0421C46.475 18.4447 73.2172 11.6679 99.9631 16.2962V20.3976C72.8898 15.7129 45.8353 22.7004 18.7733 22.1172C17.2381 22.0909 15.6991 22.0269 14.1526 21.9441C11.6165 21.8011 9.06905 21.5678 6.52916 21.2706C3.73717 20.9432 1.47949 18.2604 1.47949 15.4759Z" fill="#331414" stroke="white" stroke-width="0.969108"/>
<path fill-rule="evenodd" clip-rule="evenodd" d="M17.4102 12.4844C17.4102 9.69243 19.6678 7.96907 22.4561 8.37169C25.5679 9.08286 26.851 13.8955 22.6404 13.3574C22.9114 11.5851 21.3837 12.2286 21.5116 13.2746C21.5199 13.5365 21.6172 13.7877 21.7876 13.9868C21.9579 14.1859 22.1911 14.3209 22.4485 14.3696C24.0966 14.6217 25.7523 14.8061 27.4079 14.9415C28.7888 15.0582 30.1623 15.1334 31.547 15.1786C32.9317 15.2237 34.2938 15.2426 35.6597 15.2313C62.4583 14.1024 89.1817 -1.32503 115.864 12.1571V16.251C88.7302 13.617 61.6493 23.1369 34.6927 19.3365C33.1574 19.3365 31.6172 19.2963 30.072 19.2161C27.5358 19.0881 24.9884 18.8398 22.4485 18.4635C19.6641 18.0609 17.4102 15.2689 17.4102 12.4844Z" fill="#D6BD9F"/>
<path d="M66.6389 5.96352C83.5037 2.73504 100.918 3.32956 117.783 11.1825L116.278 11.8937V16.8041L115.766 16.6499C99.5859 14.3696 83.3081 18.9452 66.6502 19.1333V19.2612C81.9422 20.1003 98.0168 14.8399 115.465 15.7054V12.4205C98.9086 4.63525 81.7879 6.58062 66.6502 10.8664L66.6389 5.96352ZM64.893 6.3097C65.4762 6.18929 66.0594 6.07264 66.6389 5.96352V10.8552C65.7396 11.1185 64.8478 11.3744 63.9673 11.6453C54.5603 13.5907 45.1533 15.5398 35.7464 15.6301H35.6899C34.9976 15.6301 34.309 15.6301 33.6241 15.6301C32.9393 15.6301 32.2432 15.6301 31.5584 15.585C30.8735 15.5398 30.1586 15.5285 29.4775 15.4947C28.7965 15.4608 28.0665 15.4044 27.393 15.3479C26.5651 15.2764 25.7373 15.1937 24.902 15.1033C24.0666 15.013 23.2351 14.8926 22.4073 14.776C22.1518 14.7307 21.9115 14.6233 21.7074 14.4632C21.5033 14.3031 21.3418 14.0952 21.237 13.8579C21.1927 13.7679 21.1586 13.6732 21.1354 13.5756C21.1173 13.4725 21.1085 13.368 21.1091 13.2633C21.1113 13.1965 21.1176 13.1299 21.1279 13.0639C21.4289 11.0358 24.0478 12.127 22.6669 13.3461C25.1767 13.2107 25.3234 10.3171 23.4759 9.03396C23.1358 8.91492 22.7857 8.82677 22.4298 8.77056C22.1807 8.73392 21.9291 8.71631 21.6773 8.71788C20.7615 8.69664 19.867 8.99612 19.1487 9.56451C18.4597 10.1314 18.0108 10.9379 17.8919 11.8222C17.863 12.0367 17.8479 12.2529 17.8467 12.4694C17.8789 13.424 18.1397 14.3569 18.6072 15.1897C19.0747 16.0226 19.7352 16.7311 20.5334 17.2557C20.8359 17.4581 21.1587 17.6283 21.4967 17.7636C21.8342 17.8949 22.1849 17.9895 22.5427 18.0458C23.8246 18.239 25.0889 18.3933 26.3356 18.5087C27.5999 18.6366 28.8642 18.7269 30.136 18.7909C31.675 18.8661 33.2027 18.9 34.7304 18.9C44.6567 18.9 54.9366 20.6121 64.8892 19.1295C65.4799 19.1747 66.0782 19.2198 66.669 19.2462V19.1182C66.0782 19.1182 65.4875 19.1182 64.8892 19.1182C54.9178 20.6008 44.7394 19.7278 34.7304 19.7278C33.1839 19.7278 31.6374 19.6827 30.0909 19.6074C28.8191 19.5434 27.5359 19.4531 26.2641 19.3252C24.9923 19.1973 23.6565 19.0618 22.3922 18.8812C21.9722 18.8188 21.5607 18.709 21.1655 18.5538C20.7689 18.397 20.3904 18.1977 20.0367 17.9593C19.125 17.3591 18.3711 16.5483 17.8386 15.5954C17.3062 14.6425 17.0108 13.5755 16.9775 12.4844C16.9772 12.2263 16.9961 11.9684 17.034 11.7131C17.176 10.6218 17.7291 9.62588 18.5805 8.9286C19.447 8.23721 20.5276 7.86991 21.6359 7.89007C21.9254 7.89307 22.2145 7.91444 22.5013 7.95404C22.916 8.02088 23.3239 8.12413 23.7205 8.26259C24.1117 8.40881 24.4894 8.58885 24.8493 8.80067C26.6705 9.88435 26.6404 12.5409 24.7327 13.8503C38.0492 13.9933 51.2867 9.12803 64.893 6.3097Z" fill="#331414"/>
<path fill-rule="evenodd" clip-rule="evenodd" d="M13.3047 11.4194C13.3047 6.36971 17.4174 3.65298 22.4558 4.27007C27.4942 4.88717 30.2786 13.3384 23.9609 13.9856C24.5968 14.4221 27.6447 9.21062 22.4558 8.37152C19.6638 7.96514 17.4099 9.69226 17.4099 12.4843C17.4099 15.2762 19.6638 18.0607 22.4483 18.4709C24.9882 18.8471 27.5356 19.088 30.0717 19.2234C31.6169 19.3062 33.1572 19.3463 34.6924 19.3438C62.1307 22.8997 88.474 14.5011 115.863 16.2583V18.4859C87.9209 10.3094 59.9821 24.1903 32.0359 23.3926C28.8265 23.3102 25.625 23.0363 22.4483 22.5723C17.3986 21.8348 13.3047 16.4766 13.3047 11.4194Z" fill="#331414"/>
<path d="M32.0458 23.8481C59.7362 26.9637 86.8998 16.488 114.884 17.79L115.501 16.5332C97.4394 14.8061 80.7062 18.3694 64.8762 17.7712C54.9085 19.2537 44.7001 19.7165 34.7023 19.709C33.8218 19.709 32.9301 19.709 32.0458 19.6714V18.9451C42.7434 19.3816 51.236 18.3356 62.2196 16.6875C78.7044 22.2376 98.6171 18.1324 116.246 15.9763L115.629 18.7796C87.547 10.5654 60.1012 24.1453 32.0458 23.6938V23.8481ZM32.0458 12.0931V11.777C32.1211 11.7582 32.2038 11.7281 32.2829 11.7018C32.3468 11.8485 32.4108 11.984 32.4672 12.1194C32.3284 12.0932 32.1868 12.0844 32.0458 12.0931ZM12.9346 11.4196C12.9346 6.47149 16.5092 4.05201 20.494 3.86011C20.3209 4.10845 20.494 4.01438 20.3661 4.23639C17.1752 4.48473 14.2817 6.69349 13.7624 10.2569C13.0437 15.299 17.1828 21.6544 22.5146 22.2C25.6555 22.9415 28.8383 23.4919 32.0458 23.8481V23.6938C28.8156 23.6536 25.5916 23.4022 22.3942 22.9412C17.1 22.1623 12.9346 16.6498 12.9346 11.4196ZM32.0458 19.6714V18.9451C30.9847 18.8962 29.901 18.8436 28.791 18.7721C28.5539 19.5622 27.9632 19.1709 27.5267 19.4268C29.0318 19.5447 30.5369 19.6262 32.042 19.6714H32.0458ZM32.0458 11.7695C31.9072 11.7886 31.7667 11.7886 31.6281 11.7695C31.6863 11.8634 31.7319 11.9647 31.7636 12.0705H32.0458V11.7695Z" fill="white"/>
<path fill-rule="evenodd" clip-rule="evenodd" d="M26.3047 28.066C26.3047 30.8618 29.5971 33.7365 32.4794 32.6717C35.3617 31.6068 36.912 29.1121 33.6986 28.2052C30.7335 31.4977 28.5059 26.1658 32.4794 26.6663C34.1275 26.9171 35.7807 27.1078 37.4388 27.2382C38.8122 27.3473 40.1969 27.4301 41.5779 27.4753C42.9588 27.5204 44.3172 27.5392 45.6906 27.5317C66.1828 27.3473 89.1621 17.8989 109.658 18.4784C115.393 18.644 111.679 17.6506 117.583 18.1774C127.844 19.6825 148.366 27.1404 148.366 32.0997C148.366 30.7263 149.066 29.0406 149.066 27.6784C149.984 26.1733 127.291 15.5886 125.545 17.2367C98.904 10.0309 71.3641 23.4453 44.7236 23.4265C43.1883 23.4265 41.6418 23.3926 40.1028 23.3174C37.5667 23.1932 35.0193 22.9411 32.4794 22.5648C28.4984 21.3193 26.3047 25.2853 26.3047 28.066Z" fill="#935D49" stroke="white" stroke-width="0.969108"/>
<path fill-rule="evenodd" clip-rule="evenodd" d="M21.9219 26.3465C21.9219 30.8957 24.251 33.8457 29.2969 34.5719C37.0558 35.0912 37.2665 26.5309 33.1463 27.3662C35.5394 31.4074 26.7157 33.3152 26.7495 26.7754C26.7495 23.9834 29.6883 22.1623 32.4803 22.5724C35.0202 22.9487 37.5676 23.1933 40.1037 23.325C41.6427 23.4002 43.1892 23.4341 44.7244 23.4341C71.2333 23.4341 110.268 14.0271 125.534 17.2518C136.74 19.6224 145.928 24.2167 148.863 26.7303V19.1257C146.271 17.8614 127.201 14.6781 125.782 14.6329C105.49 13.9481 85.4679 19.3891 63.0793 18.0194C56.6374 18.7118 48.6264 19.3477 42.0566 19.295C38.8496 19.2096 35.6506 18.9332 32.4765 18.4672C27.4231 17.741 22.0009 21.3194 21.9219 26.3465Z" fill="#331414" stroke="white" stroke-width="0.969108"/>
<path fill-rule="evenodd" clip-rule="evenodd" d="M73.1921 17.6693C72.2627 14.3769 74.3661 11.6489 77.7488 11.0581C81.3159 10.7006 82.9791 14.9488 82.2077 16.2583C78.1589 14.3317 77.1769 15.6751 78.2681 17.1802C78.3623 17.4867 78.5623 17.7499 78.8324 17.9229C79.1025 18.0958 79.4252 18.1673 79.7431 18.1246C106.504 14.1398 114.666 -9.04649 148.881 11.0205V12.7401C121.07 7.81835 119.23 8.8644 95.4791 18.6853C93.7332 19.4153 91.9571 20.0775 90.166 20.6683C87.21 21.6632 84.1804 22.4243 81.1052 22.9448C77.7225 23.5355 74.1215 20.943 73.1921 17.6693Z" fill="#331414"/>
<path d="M72.4955 17.8613C71.4382 14.1324 73.9781 10.9641 77.6355 10.3358C79.5169 10.0234 80.7436 10.0987 81.6805 10.761C83.212 11.8333 83.5619 14.1738 84.0661 15.8934C82.7717 13.7938 78.9224 24.0286 112.844 2.55054C112.977 3.01856 113.224 3.4464 113.563 3.79602C102.609 10.3019 92.0395 16.5519 79.8781 18.8472C78.087 19.1934 76.8039 17.2932 77.184 15.6902C77.9365 13.2895 80.9882 13.5078 82.196 15.4908C82.6701 14.3243 81.5074 12.68 80.6909 12.1871C80.119 11.7882 79.3626 11.5323 77.8726 11.7807C77.2617 11.8731 76.6757 12.0877 76.1496 12.4118C75.6236 12.7359 75.1684 13.1627 74.8111 13.6668C74.4539 14.1709 74.2019 14.7419 74.0705 15.3456C73.939 15.9493 73.9306 16.5733 74.0458 17.1803C74.5839 20.3561 77.7484 22.7756 80.9882 22.2224C84.0245 21.6958 87.0169 20.9411 89.9398 19.9647C96.3705 18.4973 107.03 12.5144 115.463 8.61992C114.409 9.28217 113.205 9.74876 112.234 10.5389C111.838 10.8516 111.57 11.2988 111.482 11.7957C104.652 15.4231 97.7364 18.9187 90.4102 21.3457C87.4202 22.3489 84.3568 23.1188 81.2478 23.6485C77.4587 24.3296 73.5115 21.4812 72.4955 17.8613Z" fill="white"/>
<path fill-rule="evenodd" clip-rule="evenodd" d="M67.9809 17.6055C66.7166 10.4073 72.3834 6.29075 76.3832 6.23431C88.665 6.07251 87.0394 16.4954 81.9898 16.962C83.5701 14.4297 81.6135 10.4938 78.227 11.0582C74.8405 11.6226 72.6091 14.9226 73.5385 18.2263C73.9917 19.8109 75.016 21.1713 76.4135 22.0448C77.811 22.9183 79.4826 23.243 81.1055 22.9562C84.1858 22.4365 87.2205 21.6753 90.1814 20.6797C91.9725 20.0889 93.7485 19.4267 95.4944 18.6967C118.071 8.98115 120.163 -0.76072 148.885 12.6762V14.5576C119.99 9.4816 118.828 15.5209 93.8012 24.7172C90.1346 26.0927 86.3462 27.1182 82.4865 27.7801C74.7539 29.8872 68.0975 24.5554 67.9809 17.6055Z" fill="#935D49" stroke="white" stroke-width="0.969108"/>
<path fill-rule="evenodd" clip-rule="evenodd" d="M119.439 18.5237C130.163 20.7813 148.676 29.3041 148.868 33.8533V27.1931C146.528 24.6119 126.088 15.3855 124.47 16.8981C122.817 16.4678 121.136 16.1485 119.439 15.9424V18.5237Z" fill="#D6BD9F" stroke="white" stroke-width="0.760084"/>
<path fill-rule="evenodd" clip-rule="evenodd" d="M62.2763 18.7606C61.4222 9.30093 66.0617 3.63416 74.257 1.66998C93.1237 -0.677999 91.0203 19.6787 81.1505 16.7588C88.74 15.4493 85.9368 5.68112 77.4328 6.29822C71.228 6.75352 66.1445 12.4316 68.5903 20.3824C70.2647 26.3313 76.3492 28.8599 82.4712 27.7838C86.3315 27.117 90.1199 26.0865 93.7859 24.7058C120.468 13.9141 123.696 5.13928 148.869 14.471V19.3175C117.804 8.75532 113.838 27.7762 83.728 33.6725C72.7557 35.8098 63.1305 28.2315 62.2763 18.7606Z" fill="#331414" stroke="white" stroke-width="0.969108"/>
<path d="M70.6136 46.5601H68.9316C68.2477 46.5721 67.5688 46.4418 66.9379 46.1775C66.307 45.9132 65.7379 45.5207 65.2667 45.0249C64.7799 44.5421 64.3957 43.9659 64.1371 43.3309C63.8784 42.696 63.7507 42.0153 63.7616 41.3298V36.2463C63.7666 35.7643 63.6731 35.2864 63.4867 34.8418C63.3004 34.3973 63.0251 33.9956 62.6779 33.6612C62.3432 33.3103 61.9393 33.0328 61.4917 32.8462C61.0441 32.6597 60.5626 32.5682 60.0778 32.5776V41.3298C60.0634 42.4834 60.2902 43.6273 60.7438 44.688C61.1974 45.7488 61.8677 46.703 62.7118 47.4895C63.5264 48.3104 64.4979 48.959 65.5684 49.3966C66.6389 49.8342 67.7865 50.052 68.9429 50.0369H74.1017C74.1007 49.1151 73.7341 48.2313 73.0823 47.5795C72.4305 46.9277 71.5467 46.5611 70.6249 46.5601H70.6136Z" fill="#331414"/>
<path d="M48.0351 34.5155C47.8595 34.1906 47.6363 33.8938 47.3728 33.635C47.0375 33.287 46.6345 33.0113 46.1887 32.8249C45.7428 32.6386 45.2635 32.5454 44.7803 32.5513V40.63C44.7803 40.8482 44.7803 41.0665 44.7803 41.2847V50.037C45.7498 50.0291 46.6775 49.6405 47.3631 48.9548C48.0487 48.2692 48.4374 47.3416 48.4452 46.372V41.2847C48.4331 40.5979 48.5603 39.9158 48.819 39.2794C49.0776 38.6431 49.4625 38.0657 49.9504 37.5821C50.4207 37.0852 50.9896 36.692 51.6207 36.4276C52.2518 36.1632 52.9312 36.0336 53.6153 36.0469H55.2898C55.7467 36.0548 56.2004 35.9691 56.623 35.795C57.0456 35.6209 57.428 35.3622 57.7469 35.0347C58.0732 34.7149 58.3315 34.3323 58.5061 33.9101C58.6807 33.4878 58.768 33.0345 58.7628 32.5776H53.604C51.5774 32.5476 49.6053 33.2339 48.0351 34.5155Z" fill="#331414"/>
<path d="M39.0049 32.5776V46.372C39.0137 47.3413 39.4027 48.2684 40.0881 48.9538C40.7735 49.6392 41.7006 50.0282 42.6698 50.037V36.2464C42.662 35.2764 42.2735 34.3484 41.5879 33.6622C40.9024 32.976 39.9748 32.5865 39.0049 32.5776Z" fill="#331414"/>
<path d="M28.4421 32.5776C27.284 32.5624 26.1348 32.782 25.0638 33.223C23.9929 33.6641 23.0224 34.3175 22.2109 35.1439C21.3847 35.9457 20.7278 36.9052 20.2793 37.9655C19.8307 39.0258 19.5996 40.1654 19.5996 41.3167C19.5996 42.468 19.8307 43.6076 20.2793 44.668C20.7278 45.7283 21.3847 46.6878 22.2109 47.4896C23.0245 48.3119 23.9958 48.9614 25.0666 49.3991C26.1373 49.8368 27.2854 50.0538 28.4421 50.037H37.3034V41.3299C37.3185 40.1723 37.0921 39.0244 36.6386 37.9592C36.185 36.8941 35.5144 35.9352 34.6695 35.1439C33.8574 34.3194 32.8873 33.6671 31.8173 33.2262C30.7473 32.7852 29.5993 32.5647 28.4421 32.5776ZM33.5896 46.5602H28.4421C27.759 46.5739 27.0807 46.4443 26.4508 46.1799C25.8208 45.9155 25.2533 45.5221 24.7846 45.025C24.2975 44.5424 23.9131 43.9663 23.6544 43.3313C23.3958 42.6963 23.2682 42.0155 23.2795 41.3299C23.2698 40.6406 23.398 39.9563 23.6564 39.3173C23.9149 38.6782 24.2985 38.0972 24.7846 37.6085C25.2574 37.115 25.8251 36.7222 26.4537 36.4539C27.0823 36.1856 27.7586 36.0473 28.4421 36.0473C29.1255 36.0473 29.8019 36.1856 30.4304 36.4539C31.059 36.7222 31.6267 37.115 32.0995 37.6085C32.5836 38.0987 32.9658 38.68 33.2242 39.3187C33.4825 39.9574 33.6118 40.641 33.6046 41.3299L33.5896 46.5602Z" fill="#331414"/>
<path d="M75.2383 32.7432V47.4181C75.2472 48.3893 75.6377 49.318 76.3255 50.0037C77.0134 50.6895 77.9433 51.0771 78.9145 51.083V36.4081C78.9057 35.4369 78.5151 34.5082 77.8273 33.8224C77.1395 33.1367 76.2095 32.7491 75.2383 32.7432Z" fill="#331414"/>
<path d="M14.1262 32.5778V39.5841H5.98348V36.2465C5.99099 35.7642 5.89858 35.2855 5.71208 34.8406C5.52558 34.3958 5.24902 33.9943 4.89979 33.6615C4.56771 33.3124 4.16691 33.0358 3.72264 32.8493C3.27838 32.6628 2.80029 32.5704 2.31852 32.5778V46.3722C2.31399 46.8536 2.40777 47.3308 2.59411 47.7746C2.78045 48.2185 3.05542 48.6196 3.4022 48.9535C3.7358 49.3006 4.13689 49.5758 4.5808 49.7622C5.02471 49.9486 5.50206 50.0421 5.98348 50.0372V43.0308H14.1262V46.3722C14.135 47.3415 14.524 48.2686 15.2094 48.954C15.8948 49.6394 16.8218 50.0283 17.7911 50.0372V36.2465C17.7936 35.7644 17.7005 35.2865 17.5173 34.8405C17.334 34.3945 17.0642 33.9893 16.7235 33.6481C16.3827 33.307 15.9777 33.0368 15.5319 32.8531C15.0861 32.6694 14.6083 32.5758 14.1262 32.5778Z" fill="#331414"/>
<path d="M103.17 32.5777C102.014 32.5616 100.866 32.7808 99.7969 33.222C98.7277 33.6631 97.7593 34.317 96.9505 35.144C95.742 36.2981 94.9049 37.7863 94.5461 39.4185C94.2802 40.6789 94.2802 41.981 94.5461 43.2415C94.9056 44.8658 95.743 46.3453 96.9505 47.4897C97.7613 48.3127 98.7305 48.9627 99.7995 49.4006C100.869 49.8384 102.015 50.055 103.17 50.0371H108.337C108.345 49.5788 108.258 49.1238 108.081 48.7008C107.904 48.2779 107.641 47.8963 107.31 47.58C106.989 47.252 106.605 46.9925 106.182 46.8173C105.758 46.642 105.303 46.5546 104.845 46.5603H103.17C102.488 46.5723 101.811 46.4409 101.183 46.1745C100.555 45.9081 99.9898 45.5126 99.5243 45.0138C99.0394 44.5319 98.6564 43.9575 98.3978 43.3247C98.1392 42.6918 98.0105 42.0135 98.0192 41.33C98.0124 40.6428 98.142 39.9611 98.4004 39.3243C98.6587 38.6875 99.0407 38.1082 99.5243 37.6199C99.9874 37.1162 100.551 36.7159 101.18 36.4449C101.808 36.1739 102.486 36.0383 103.17 36.047H104.852C105.31 36.0537 105.765 35.9675 106.188 35.7935C106.612 35.6195 106.996 35.3614 107.317 35.0348C107.649 34.7186 107.911 34.3369 108.088 33.914C108.265 33.4911 108.352 33.0361 108.344 32.5777H103.17Z" fill="#331414"/>
<path d="M101.945 39.584C101.716 39.577 101.489 39.618 101.277 39.7041C101.065 39.7903 100.873 39.9199 100.715 40.0845C100.553 40.2482 100.426 40.443 100.342 40.6571C100.258 40.8712 100.218 41.1001 100.225 41.33C100.218 41.5548 100.258 41.7786 100.343 41.9872C100.427 42.1958 100.553 42.3846 100.715 42.5416C100.875 42.7006 101.065 42.8258 101.275 42.9098C101.484 42.9938 101.708 43.0349 101.934 43.0307H104.854C105.311 43.0389 105.765 42.9544 106.188 42.7824C106.612 42.6104 106.996 42.3544 107.318 42.0298C107.65 41.7163 107.913 41.3367 108.09 40.9155C108.267 40.4943 108.354 40.0408 108.345 39.584H101.949H101.945Z" fill="#331414"/>
<path d="M89.5935 36.0471H91.2754C91.9892 36.047 92.6859 35.828 93.2713 35.4196C93.8567 35.0112 94.3027 34.433 94.5491 33.763C94.6832 33.3822 94.7519 32.9815 94.7522 32.5778H89.5935C88.4376 32.5615 87.2902 32.778 86.2197 33.2143C85.1492 33.6507 84.1774 34.2979 83.3623 35.1176C82.5225 35.9079 81.8566 36.8644 81.407 37.9262C80.9574 38.988 80.7339 40.1319 80.7509 41.2849V50.7295C81.7228 50.7236 82.6533 50.3354 83.3412 49.6489C84.0292 48.9623 84.4193 48.0326 84.4271 47.0608V41.2849C84.417 40.5983 84.545 39.9167 84.8036 39.2807C85.0621 38.6446 85.446 38.067 85.9323 37.5823C86.403 37.0869 86.9715 36.6947 87.6017 36.4304C88.232 36.1662 88.9102 36.0356 89.5935 36.0471Z" fill="#331414"/>
<path d="M120.523 34.5154C120.345 34.1907 120.121 33.894 119.857 33.6349C119.522 33.2878 119.12 33.0127 118.676 32.8264C118.231 32.64 117.753 32.5464 117.271 32.5512V50.0106C118.243 50.0066 119.173 49.6187 119.86 48.9314C120.547 48.2441 120.933 47.3133 120.936 46.3418V41.2621C120.927 40.5767 121.055 39.8965 121.314 39.2617C121.572 38.6269 121.956 38.0506 122.442 37.567C122.912 37.0685 123.481 36.6735 124.113 36.4072C124.745 36.1409 125.425 36.0092 126.11 36.0205H127.807C128.263 36.0235 128.715 35.9359 129.137 35.7628C129.559 35.5897 129.942 35.3346 130.264 35.0122C130.587 34.6898 130.842 34.3065 131.015 33.8847C131.188 33.4629 131.276 33.0109 131.273 32.555H126.107C124.071 32.5221 122.091 33.2174 120.523 34.5154Z" fill="#331414"/>
<path d="M112.755 46.53C112.414 46.5286 112.08 46.6285 111.795 46.8171C111.511 47.0057 111.289 47.2746 111.157 47.5895C111.026 47.9045 110.991 48.2515 111.057 48.5864C111.123 48.9213 111.287 49.229 111.528 49.4707C111.769 49.7123 112.076 49.8769 112.411 49.9435C112.746 50.0102 113.093 49.976 113.408 49.8452C113.723 49.7144 113.993 49.4929 114.182 49.2089C114.371 48.9248 114.472 48.591 114.471 48.2496C114.47 47.7945 114.289 47.3583 113.968 47.0361C113.646 46.714 113.21 46.532 112.755 46.53Z" fill="#331414"/>
<path d="M147.776 33.5183C147.44 33.1703 147.037 32.8948 146.59 32.7084C146.144 32.5221 145.664 32.4289 145.18 32.4346V46.323C145.18 46.387 145.18 46.451 145.18 46.5149H141.353C140.669 46.5269 139.99 46.3966 139.36 46.1323C138.729 45.8681 138.16 45.4756 137.688 44.9797C137.202 44.495 136.818 43.9174 136.56 43.2813C136.301 42.6453 136.173 41.9637 136.183 41.2771V36.1898C136.177 35.219 135.789 34.2897 135.102 33.6035C134.415 32.9174 133.485 32.5298 132.515 32.5249V41.2621C132.498 42.415 132.721 43.5588 133.171 44.6206C133.621 45.6824 134.286 46.6389 135.126 47.4293C135.941 48.2488 136.912 48.8968 137.982 49.335C139.051 49.7732 140.198 49.9926 141.353 49.9805H148.86V36.0995C148.866 35.618 148.773 35.1403 148.587 34.6962C148.4 34.2521 148.124 33.8512 147.776 33.5183Z" fill="#331414"/>
<path d="M87.4907 39.584C87.2626 39.5771 87.0356 39.6181 86.8244 39.7042C86.6131 39.7904 86.4222 39.92 86.2641 40.0845C86.102 40.248 85.9748 40.4427 85.8901 40.6567C85.8054 40.8708 85.7649 41.0998 85.7711 41.3299C85.7665 41.5555 85.8086 41.7795 85.8948 41.988C85.9809 42.1965 86.1092 42.385 86.2716 42.5416C86.4321 42.7 86.6226 42.8249 86.8319 42.9089C87.0412 42.9929 87.2652 43.0343 87.4907 43.0307H90.3956C90.8527 43.0389 91.3067 42.9544 91.7303 42.7824C92.1539 42.6104 92.5382 42.3544 92.8602 42.0298C93.1917 41.7157 93.4542 41.336 93.6311 40.9149C93.8079 40.4939 93.8952 40.0406 93.8875 39.584H87.4907Z" fill="#331414"/>
</g>
<defs>
<clipPath id="clip0_541_1489">
<rect width="150" height="52" fill="white"/>
</clipPath>
</defs>
</svg>
