<svg width="177" height="172" viewBox="0 0 177 172" fill="none" xmlns="http://www.w3.org/2000/svg">
<circle cx="100" cy="100" r="99.1968" stroke="#2CB34C" stroke-width="1.60643"/>
<circle cx="100" cy="100" r="63.8554" fill="white" style="mix-blend-mode:screen"/>
<path fill-rule="evenodd" clip-rule="evenodd" d="M98.6753 127.046C114.978 127.046 128.193 113.83 128.193 97.5281C128.193 81.2269 114.978 68.01 98.6753 68.01C82.3741 68.01 69.1572 81.2269 69.1572 97.5281C69.1572 113.83 82.3741 127.046 98.6753 127.046ZM97.4705 124.637C111.777 124.637 123.374 112.499 123.374 97.5281C123.374 82.557 111.777 70.4196 97.4705 70.4196C83.1645 70.4196 71.5669 82.557 71.5669 97.5281C71.5669 112.5 83.1645 124.637 97.4705 124.637Z" fill="#2CB34C"/>
<path fill-rule="evenodd" clip-rule="evenodd" d="M91.1491 77.3534C91.225 75.9004 92.2744 74.7089 93.2419 73.6221C93.8592 72.9277 94.2626 72.0697 94.4036 71.1514C94.5445 70.2331 94.4171 69.2936 94.0365 68.446C93.6559 67.5985 93.0384 66.879 92.2584 66.3742C91.4784 65.8694 90.5692 65.6009 89.6401 65.6009C88.711 65.6009 87.8017 65.8694 87.0217 66.3742C86.2417 66.879 85.6243 67.5985 85.2437 68.446C84.8631 69.2936 84.7356 70.2331 84.8766 71.1514C85.0176 72.0697 85.421 72.9277 86.0383 73.6221C87.0057 74.7089 88.0551 75.9004 88.131 77.3534L88.6323 86.9823C88.668 87.676 88.4853 88.3633 88.1099 88.9476C87.7344 89.5319 87.1851 89.9837 86.5394 90.2394C85.8936 90.4951 85.1839 90.5418 84.5102 90.3729C83.8366 90.204 83.2328 89.8281 82.7841 89.298L76.678 82.0811C76.0901 81.3872 75.8648 80.4631 75.5359 79.6149C75.3304 79.0866 74.9965 78.6179 74.5643 78.2512C74.1321 77.8845 73.6152 77.6314 73.0606 77.5148C72.5059 77.3981 71.9309 77.4217 71.3876 77.5832C70.8443 77.7448 70.3499 78.0393 69.9491 78.4401C69.5483 78.8409 69.2537 79.3353 69.0922 79.8786C68.9306 80.4219 68.9071 80.9969 69.0237 81.5516C69.1403 82.1063 69.3935 82.6231 69.7601 83.0553C70.1268 83.4876 70.5955 83.8215 71.1238 84.0269C71.972 84.3558 72.8949 84.5811 73.5901 85.1691L82.3732 92.6004C82.3802 92.6063 82.3857 92.6138 82.3893 92.6222C82.3928 92.6307 82.3941 92.6399 82.3933 92.649C82.3925 92.6581 82.3895 92.6669 82.3845 92.6746C82.3795 92.6823 82.3728 92.6887 82.3648 92.6932C82.3562 92.698 82.349 92.705 82.3439 92.7134C82.3389 92.7219 82.3361 92.7315 82.3359 92.7414V97.0426C82.3363 97.7282 82.1416 98.3998 81.7747 98.979C81.4078 99.5582 80.8837 100.021 80.2636 100.314L71.2551 104.558C70.5865 104.873 69.8214 104.911 69.0973 105.062C68.625 105.16 68.1828 105.369 67.807 105.671C67.4311 105.974 67.1324 106.361 66.9352 106.801C66.7381 107.241 66.6482 107.722 66.673 108.204C66.6977 108.686 66.8364 109.155 67.0776 109.572C67.3188 109.99 67.6557 110.345 68.0606 110.607C68.4654 110.869 68.9267 111.031 69.4066 111.081C69.8864 111.13 70.3711 111.065 70.8209 110.89C71.2706 110.716 71.6726 110.437 71.9937 110.078C72.4853 109.526 72.9009 108.882 73.5094 108.461L81.3889 102.991C81.9521 102.6 82.6149 102.377 83.2999 102.349C83.985 102.321 84.6639 102.488 85.2576 102.831L87.6069 104.187C88.1432 104.496 88.591 104.938 88.9074 105.47C89.2239 106.002 89.3984 106.607 89.4142 107.226L89.8479 124.45C89.8576 124.873 89.6383 125.262 89.3178 125.537C88.5414 126.2 87.9957 127.092 87.7594 128.086C87.523 129.079 87.6082 130.122 88.0027 131.063C88.3973 132.005 89.0807 132.797 89.9544 133.325C90.8282 133.854 91.8471 134.091 92.8643 134.002C93.8815 133.914 94.8444 133.505 95.6141 132.834C96.3838 132.163 96.9206 131.265 97.147 130.27C97.3734 129.274 97.2778 128.232 96.8739 127.295C96.47 126.357 95.7787 125.572 94.8997 125.052C94.5347 124.837 94.2515 124.492 94.1889 124.073L91.6226 106.856C91.5158 106.138 91.6274 105.405 91.9429 104.752C92.2583 104.099 92.763 103.556 93.3913 103.193L93.4359 103.167C94.0069 102.837 94.6571 102.67 95.3163 102.683C95.9755 102.697 96.6185 102.89 97.1756 103.243L119.999 117.682C120.914 118.262 121.453 119.261 121.938 120.229C122.354 121.056 122.992 121.75 123.781 122.233C124.571 122.716 125.479 122.968 126.404 122.963C127.329 122.957 128.234 122.693 129.017 122.2C129.8 121.707 130.43 121.005 130.835 120.173C131.24 119.342 131.405 118.413 131.311 117.493C131.217 116.573 130.867 115.697 130.302 114.965C129.736 114.233 128.977 113.673 128.111 113.349C127.244 113.025 126.304 112.95 125.397 113.132C123.942 113.425 122.343 113.711 121.041 112.997L98.819 100.796C98.2511 100.484 97.7773 100.026 97.4473 99.4681C97.1173 98.9106 96.9431 98.2747 96.9431 97.6269V96.6028C96.943 95.9109 97.1416 95.2336 97.5151 94.6512C97.8886 94.0688 98.4215 93.6058 99.0503 93.3173L122.785 82.4245C124.027 81.8546 125.465 82.1293 126.773 82.5293C127.887 82.8696 129.076 82.8716 130.19 82.5348C131.305 82.1981 132.294 81.5379 133.033 80.638C133.771 79.738 134.226 78.639 134.339 77.4803C134.452 76.3216 134.218 75.1554 133.667 74.1298C133.116 73.1041 132.273 72.2653 131.245 71.7196C130.217 71.1739 129.049 70.946 127.891 71.0649C126.733 71.1837 125.636 71.6439 124.74 72.3871C123.844 73.1302 123.189 74.1228 122.858 75.239C122.443 76.6293 121.836 78.0751 120.576 78.7956L98.4082 91.4823C97.8595 91.7963 97.2381 91.9608 96.606 91.9595C95.9739 91.9582 95.3531 91.7912 94.8057 91.4751L92.4588 90.1197C91.8819 89.7864 91.4084 89.3001 91.0905 88.7145C90.7726 88.129 90.6228 87.467 90.6576 86.8016L91.1491 77.3534V77.3534Z" fill="#2CB34C"/>
<path fill-rule="evenodd" clip-rule="evenodd" d="M122.658 118.163C122.636 117.679 122.443 117.197 122.035 116.935L107.712 107.769L122.17 114.998L122.889 115.238C123.341 115.388 123.829 115.244 124.217 114.968C124.891 114.488 125.705 114.246 126.532 114.281C127.359 114.316 128.15 114.625 128.782 115.16C129.413 115.695 129.848 116.425 130.018 117.235C130.188 118.044 130.083 118.888 129.721 119.631C129.358 120.375 128.757 120.976 128.014 121.341C127.272 121.705 126.428 121.811 125.618 121.643C124.808 121.475 124.077 121.041 123.541 120.411C123.005 119.781 122.694 118.99 122.658 118.163V118.163Z" fill="url(#paint0_linear_232_727)"/>
<path fill-rule="evenodd" clip-rule="evenodd" d="M125.954 80.445C125.547 80.1534 125.022 80.0257 124.559 80.2185L108.917 86.7438L123.375 78.251L123.668 78.0076C123.992 77.7365 124.137 77.316 124.139 76.8932C124.142 75.9181 124.474 74.9726 125.079 74.2084C125.685 73.4443 126.53 72.9057 127.478 72.6793C128.426 72.4528 129.423 72.5516 130.309 72.9598C131.194 73.368 131.917 74.0619 132.361 74.9301C132.805 75.7982 132.944 76.7904 132.756 77.7472C132.568 78.704 132.065 79.5699 131.326 80.206C130.587 80.8422 129.655 81.2115 128.681 81.2549C127.707 81.2982 126.747 81.013 125.954 80.445V80.445Z" fill="url(#paint1_linear_232_727)"/>
<path fill-rule="evenodd" clip-rule="evenodd" d="M91.438 73.5558C91.1248 73.7366 90.8561 73.9992 90.7416 74.3426L89.6392 77.6486L88.7392 74.4956C88.6272 74.1052 88.32 73.8101 87.9609 73.6209C87.2505 73.248 86.6844 72.6493 86.3517 71.9192C86.019 71.1891 85.9387 70.3691 86.1235 69.5883C86.3082 68.8075 86.7475 68.1104 87.3721 67.6068C87.9967 67.1032 88.771 66.8217 89.5732 66.8067C90.3754 66.7917 91.1598 67.044 91.8028 67.5239C92.4458 68.0038 92.9108 68.684 93.1246 69.4574C93.3384 70.2307 93.2888 71.0531 92.9837 71.7952C92.6786 72.5372 92.1352 73.1566 91.4392 73.5558H91.438Z" fill="url(#paint2_linear_232_727)"/>
<path fill-rule="evenodd" clip-rule="evenodd" d="M74.7891 82.4812C74.5469 82.1173 74.5457 81.6547 74.6168 81.2234C74.6951 80.7515 74.6236 80.2669 74.4123 79.8378C74.2011 79.4086 73.8607 79.0564 73.439 78.8306C73.0173 78.6048 72.5354 78.5168 72.0612 78.579C71.5869 78.6411 71.144 78.8502 70.7947 79.177C70.4453 79.5038 70.2072 79.9318 70.1136 80.4009C70.02 80.87 70.0757 81.3566 70.2729 81.7924C70.4701 82.2282 70.7988 82.5913 71.2129 82.8306C71.6271 83.07 72.1058 83.1736 72.5819 83.127C72.93 83.0944 73.2927 83.1089 73.5951 83.2836L76.3867 84.8776L74.7891 82.48V82.4812Z" fill="url(#paint3_linear_232_727)"/>
<path fill-rule="evenodd" clip-rule="evenodd" d="M72.279 107.708C72.0585 107.932 71.9489 108.238 71.8778 108.544C71.7817 108.964 71.5654 109.346 71.2553 109.645C70.9452 109.944 70.5547 110.146 70.1317 110.227C69.7086 110.307 69.2712 110.263 68.873 110.099C68.4747 109.935 68.1328 109.659 67.8891 109.303C67.6454 108.948 67.5104 108.53 67.5006 108.099C67.4908 107.669 67.6066 107.245 67.8339 106.879C68.0612 106.513 68.3901 106.221 68.7805 106.04C69.1708 105.858 69.6057 105.793 70.032 105.855C70.2923 105.891 70.5609 105.903 70.8091 105.818L75.785 104.156L72.279 107.708V107.708Z" fill="url(#paint4_linear_232_727)"/>
<path fill-rule="evenodd" clip-rule="evenodd" d="M90.1955 126.226C90.5653 125.945 90.8437 125.534 90.8437 125.069V110.179L92.9919 124.675C93.0678 125.186 93.469 125.574 93.9425 125.781C94.7035 126.113 95.3323 126.689 95.7293 127.418C96.1262 128.147 96.2687 128.987 96.1342 129.807C95.9997 130.626 95.5958 131.377 94.9865 131.941C94.3772 132.504 93.5973 132.849 92.7702 132.92C91.9635 132.99 91.1557 132.796 90.4688 132.367C89.782 131.939 89.2533 131.298 88.9626 130.542C88.6719 129.786 88.635 128.956 88.8574 128.178C89.0798 127.399 89.5494 126.714 90.1955 126.226V126.226Z" fill="url(#paint5_linear_232_727)"/>
<defs>
<linearGradient id="paint0_linear_232_727" x1="121.567" y1="115.6" x2="109.519" y2="108.974" gradientUnits="userSpaceOnUse">
<stop stop-color="white"/>
<stop offset="1" stop-color="white" stop-opacity="0"/>
</linearGradient>
<linearGradient id="paint1_linear_232_727" x1="124.823" y1="79.163" x2="111.645" y2="86.7004" gradientUnits="userSpaceOnUse">
<stop stop-color="white"/>
<stop offset="1" stop-color="white" stop-opacity="0"/>
</linearGradient>
<linearGradient id="paint2_linear_232_727" x1="89.6392" y1="74.0341" x2="90.6706" y2="77.3257" gradientUnits="userSpaceOnUse">
<stop stop-color="white"/>
<stop offset="1" stop-color="white" stop-opacity="0"/>
</linearGradient>
<linearGradient id="paint3_linear_232_727" x1="73.977" y1="82.4679" x2="76.8481" y2="83.3149" gradientUnits="userSpaceOnUse">
<stop stop-color="white"/>
<stop offset="1" stop-color="white" stop-opacity="0"/>
</linearGradient>
<linearGradient id="paint4_linear_232_727" x1="67.9525" y1="108.974" x2="74.7621" y2="102.991" gradientUnits="userSpaceOnUse">
<stop offset="0.395" stop-color="white"/>
<stop offset="1" stop-color="white" stop-opacity="0"/>
</linearGradient>
<linearGradient id="paint5_linear_232_727" x1="92.0485" y1="125.841" x2="98.6111" y2="120.706" gradientUnits="userSpaceOnUse">
<stop offset="0.05" stop-color="white"/>
<stop offset="1" stop-color="white" stop-opacity="0"/>
</linearGradient>
</defs>
</svg>
