<svg width="159" height="161" viewBox="0 0 159 161" fill="none" xmlns="http://www.w3.org/2000/svg">
<g clip-path="url(#clip0_542_1213)">
<g filter="url(#filter0_b_542_1213)">
<mask id="path-1-inside-1_542_1213" fill="white">
<path fill-rule="evenodd" clip-rule="evenodd" d="M15.0137 29.0645C10.5954 29.0645 7.01367 32.6462 7.01367 37.0645V147.064C7.01367 151.483 10.5954 155.064 15.0137 155.064H109.014C113.432 155.064 117.014 151.483 117.014 147.064V146.322C114.805 146.823 112.493 147.052 110.112 146.975C94.5402 146.472 81.9168 133.081 81.9168 117.064C81.9168 101.048 94.5402 88.472 110.112 88.9747C112.493 89.0516 114.805 89.4298 117.014 90.0727V37.0645C117.014 32.6462 113.432 29.0645 109.014 29.0645H15.0137Z"/>
</mask>
<path fill-rule="evenodd" clip-rule="evenodd" d="M15.0137 29.0645C10.5954 29.0645 7.01367 32.6462 7.01367 37.0645V147.064C7.01367 151.483 10.5954 155.064 15.0137 155.064H109.014C113.432 155.064 117.014 151.483 117.014 147.064V146.322C114.805 146.823 112.493 147.052 110.112 146.975C94.5402 146.472 81.9168 133.081 81.9168 117.064C81.9168 101.048 94.5402 88.472 110.112 88.9747C112.493 89.0516 114.805 89.4298 117.014 90.0727V37.0645C117.014 32.6462 113.432 29.0645 109.014 29.0645H15.0137Z" fill="url(#paint0_linear_542_1213)" fill-opacity="0.5"/>
<path d="M117.014 146.322H118.194V144.845L116.753 145.172L117.014 146.322ZM110.112 146.975L110.15 145.795L110.112 146.975ZM110.112 88.9747L110.074 90.1541L110.112 88.9747ZM117.014 90.0727L116.684 91.2057L118.194 91.6451V90.0727H117.014ZM8.19367 37.0645C8.19367 33.2979 11.2471 30.2445 15.0137 30.2445V27.8845C9.9437 27.8845 5.83367 31.9945 5.83367 37.0645H8.19367ZM8.19367 147.064V37.0645H5.83367V147.064H8.19367ZM15.0137 153.884C11.2471 153.884 8.19367 150.831 8.19367 147.064H5.83367C5.83367 152.134 9.9437 156.244 15.0137 156.244V153.884ZM109.014 153.884H15.0137V156.244H109.014V153.884ZM115.834 147.064C115.834 150.831 112.78 153.884 109.014 153.884V156.244C114.084 156.244 118.194 152.134 118.194 147.064H115.834ZM115.834 146.322V147.064H118.194V146.322H115.834ZM116.753 145.172C114.642 145.65 112.431 145.869 110.15 145.795L110.074 148.154C112.556 148.234 114.968 147.996 117.274 147.473L116.753 145.172ZM110.15 145.795C95.2439 145.314 83.0968 132.473 83.0968 117.064H80.7368C80.7368 133.688 93.8366 147.63 110.074 148.154L110.15 145.795ZM83.0968 117.064C83.0968 101.682 95.2005 89.6739 110.074 90.1541L110.15 87.7954C93.88 87.2701 80.7368 100.414 80.7368 117.064H83.0968ZM110.074 90.1541C112.354 90.2278 114.569 90.5899 116.684 91.2057L117.343 88.9397C115.042 88.2697 112.632 87.8755 110.15 87.7954L110.074 90.1541ZM115.834 37.0645V90.0727H118.194V37.0645H115.834ZM109.014 30.2445C112.78 30.2445 115.834 33.2979 115.834 37.0645H118.194C118.194 31.9945 114.084 27.8845 109.014 27.8845V30.2445ZM15.0137 30.2445H109.014V27.8845H15.0137V30.2445Z" fill="white" fill-opacity="0.1" mask="url(#path-1-inside-1_542_1213)"/>
</g>
<path d="M84.0137 7.83368C88.4319 7.83368 92.0137 11.4154 92.0137 15.8337L92.0137 24.0645L32.0137 24.0645L32.0137 15.8337C32.0137 11.4154 35.5954 7.83368 40.0137 7.83368L40.9116 7.83368C43.4869 7.83368 45.9526 6.55971 48.1686 5.24751C50.7601 3.71292 55.1429 2.06445 62.0137 2.06445C68.8844 2.06445 73.2672 3.71292 75.8587 5.2475C78.0747 6.55971 80.5405 7.83368 83.1158 7.83368L84.0137 7.83368Z" stroke="url(#paint1_linear_542_1213)" stroke-width="2" stroke-linecap="round" stroke-linejoin="round"/>
<path d="M65.0137 13.0645C67.2228 13.0645 69.0137 14.8553 69.0137 17.0645V17.0645L55.0137 17.0645V17.0645C55.0137 14.8553 56.8045 13.0645 59.0137 13.0645L65.0137 13.0645Z" stroke="url(#paint2_linear_542_1213)" stroke-width="2" stroke-linecap="round" stroke-linejoin="round"/>
<path fill-rule="evenodd" clip-rule="evenodd" d="M9.01367 16.0645H32.0137V18.0645H9.01367C5.14768 18.0645 2.01367 21.1985 2.01367 25.0645V152.064C2.01367 155.93 5.14768 159.064 9.01367 159.064H113.014C116.88 159.064 120.014 155.93 120.014 152.064V146.07C120.687 145.859 121.354 145.625 122.014 145.365V152.064C122.014 157.035 117.984 161.064 113.014 161.064H9.01367C4.04311 161.064 0.0136719 157.035 0.0136719 152.064V25.0645C0.0136719 20.0939 4.04311 16.0645 9.01367 16.0645ZM122.014 90.7123V25.0645C122.014 20.0939 117.984 16.0645 113.014 16.0645H92.0137V18.0645H113.014C116.88 18.0645 120.014 21.1985 120.014 25.0645V90.0063C120.686 90.2166 121.354 90.4519 122.014 90.7123Z" fill="url(#paint3_linear_542_1213)"/>
<path fill-rule="evenodd" clip-rule="evenodd" d="M89.3802 99.7522C79.2863 111.467 80.6007 129.147 92.316 139.241C104.031 149.335 121.711 148.021 131.805 136.305C141.899 124.59 140.584 106.91 128.869 96.8163C117.154 86.7225 99.4741 88.0369 89.3802 99.7522ZM91.0105 140.756C78.4584 129.941 77.0501 110.999 87.865 98.4467C98.6799 85.8946 117.623 84.4863 130.175 95.3012C140.232 103.966 143.135 117.85 138.329 129.483L155.245 141.237C157.512 142.813 158.073 145.928 156.497 148.196L154.844 150.576C153.268 152.844 150.152 153.405 147.884 151.829L130.954 140.065C119.904 150.3 102.691 150.82 91.0105 140.756ZM132.398 138.633L149.026 150.187C150.386 151.132 152.256 150.796 153.201 149.435L154.855 147.055C155.8 145.694 155.464 143.825 154.103 142.879L137.489 131.335C136.393 133.545 135.005 135.655 133.32 137.611C133.019 137.96 132.712 138.301 132.398 138.633ZM125.202 101.071C134.568 109.14 135.619 123.274 127.549 132.639C119.48 142.005 105.346 143.056 95.9804 134.986C86.6148 126.917 85.564 112.783 93.6334 103.418C101.703 94.0519 115.837 93.0011 125.202 101.071Z" fill="url(#paint4_linear_542_1213)"/>
<circle cx="111.902" cy="117.809" r="22" transform="rotate(-49.2519 111.902 117.809)" stroke="url(#paint5_linear_542_1213)" stroke-width="2" stroke-linecap="round" stroke-linejoin="round"/>
<g filter="url(#filter1_b_542_1213)">
<rect x="50.0352" y="103.12" width="21.7295" height="10" rx="5" fill="url(#paint6_linear_542_1213)" fill-opacity="0.5"/>
<rect x="50.6252" y="103.71" width="20.5495" height="8.82" rx="4.41" stroke="white" stroke-opacity="0.1" stroke-width="1.18"/>
</g>
<g filter="url(#filter2_b_542_1213)">
<rect x="50.0352" y="129.12" width="21.7295" height="10" rx="5" fill="url(#paint7_linear_542_1213)" fill-opacity="0.5"/>
<rect x="50.6252" y="129.71" width="20.5495" height="8.82" rx="4.41" stroke="white" stroke-opacity="0.1" stroke-width="1.18"/>
</g>
<g filter="url(#filter3_b_542_1213)">
<rect x="50.0352" y="51.1201" width="52.6367" height="10" rx="5" fill="url(#paint8_linear_542_1213)" fill-opacity="0.5"/>
<rect x="50.6252" y="51.7101" width="51.4567" height="8.82" rx="4.41" stroke="white" stroke-opacity="0.1" stroke-width="1.18"/>
</g>
<g filter="url(#filter4_b_542_1213)">
<rect x="50.0352" y="77.1201" width="47.8516" height="10" rx="5" fill="url(#paint9_linear_542_1213)" fill-opacity="0.5"/>
<rect x="50.6252" y="77.7101" width="46.6716" height="8.82" rx="4.41" stroke="white" stroke-opacity="0.1" stroke-width="1.18"/>
</g>
<path d="M18.0137 54.2673L25.173 61.427L41.5355 45.0645" stroke="url(#paint10_linear_542_1213)" stroke-width="2" stroke-linecap="round" stroke-linejoin="round"/>
<path d="M18.0137 79.9606L25.173 87.1203L41.5355 70.7578" stroke="url(#paint11_linear_542_1213)" stroke-width="2" stroke-linecap="round" stroke-linejoin="round"/>
<path d="M18.0137 105.961L25.173 113.12L41.5355 96.7578" stroke="url(#paint12_linear_542_1213)" stroke-width="2" stroke-linecap="round" stroke-linejoin="round"/>
<path d="M18.0137 132.323L25.173 139.483L41.5355 123.12" stroke="url(#paint13_linear_542_1213)" stroke-width="2" stroke-linecap="round" stroke-linejoin="round"/>
</g>
<defs>
<filter id="filter0_b_542_1213" x="3.54726" y="25.598" width="116.933" height="132.933" filterUnits="userSpaceOnUse" color-interpolation-filters="sRGB">
<feFlood flood-opacity="0" result="BackgroundImageFix"/>
<feGaussianBlur in="BackgroundImageFix" stdDeviation="1.73321"/>
<feComposite in2="SourceAlpha" operator="in" result="effect1_backgroundBlur_542_1213"/>
<feBlend mode="normal" in="SourceGraphic" in2="effect1_backgroundBlur_542_1213" result="shape"/>
</filter>
<filter id="filter1_b_542_1213" x="46.5687" y="99.6537" width="28.6623" height="16.9328" filterUnits="userSpaceOnUse" color-interpolation-filters="sRGB">
<feFlood flood-opacity="0" result="BackgroundImageFix"/>
<feGaussianBlur in="BackgroundImageFix" stdDeviation="1.73321"/>
<feComposite in2="SourceAlpha" operator="in" result="effect1_backgroundBlur_542_1213"/>
<feBlend mode="normal" in="SourceGraphic" in2="effect1_backgroundBlur_542_1213" result="shape"/>
</filter>
<filter id="filter2_b_542_1213" x="46.5687" y="125.654" width="28.6623" height="16.9328" filterUnits="userSpaceOnUse" color-interpolation-filters="sRGB">
<feFlood flood-opacity="0" result="BackgroundImageFix"/>
<feGaussianBlur in="BackgroundImageFix" stdDeviation="1.73321"/>
<feComposite in2="SourceAlpha" operator="in" result="effect1_backgroundBlur_542_1213"/>
<feBlend mode="normal" in="SourceGraphic" in2="effect1_backgroundBlur_542_1213" result="shape"/>
</filter>
<filter id="filter3_b_542_1213" x="46.5687" y="47.6537" width="59.5695" height="16.9328" filterUnits="userSpaceOnUse" color-interpolation-filters="sRGB">
<feFlood flood-opacity="0" result="BackgroundImageFix"/>
<feGaussianBlur in="BackgroundImageFix" stdDeviation="1.73321"/>
<feComposite in2="SourceAlpha" operator="in" result="effect1_backgroundBlur_542_1213"/>
<feBlend mode="normal" in="SourceGraphic" in2="effect1_backgroundBlur_542_1213" result="shape"/>
</filter>
<filter id="filter4_b_542_1213" x="46.5687" y="73.6537" width="54.7844" height="16.9328" filterUnits="userSpaceOnUse" color-interpolation-filters="sRGB">
<feFlood flood-opacity="0" result="BackgroundImageFix"/>
<feGaussianBlur in="BackgroundImageFix" stdDeviation="1.73321"/>
<feComposite in2="SourceAlpha" operator="in" result="effect1_backgroundBlur_542_1213"/>
<feBlend mode="normal" in="SourceGraphic" in2="effect1_backgroundBlur_542_1213" result="shape"/>
</filter>
<linearGradient id="paint0_linear_542_1213" x1="115.014" y1="137.256" x2="25.4572" y2="67.4984" gradientUnits="userSpaceOnUse">
<stop stop-color="#FCFCFC"/>
<stop offset="1" stop-color="white" stop-opacity="0"/>
</linearGradient>
<linearGradient id="paint1_linear_542_1213" x1="31.9546" y1="8.07425" x2="41.9071" y2="39.1429" gradientUnits="userSpaceOnUse">
<stop stop-color="white"/>
<stop offset="1" stop-color="white" stop-opacity="0.4"/>
</linearGradient>
<linearGradient id="paint2_linear_542_1213" x1="54.9999" y1="13.1145" x2="56.8812" y2="19.7027" gradientUnits="userSpaceOnUse">
<stop stop-color="white"/>
<stop offset="1" stop-color="white" stop-opacity="0.4"/>
</linearGradient>
<linearGradient id="paint3_linear_542_1213" x1="1.53985" y1="161.207" x2="128.843" y2="54.1551" gradientUnits="userSpaceOnUse">
<stop stop-color="white"/>
<stop offset="1" stop-color="white" stop-opacity="0.4"/>
</linearGradient>
<linearGradient id="paint4_linear_542_1213" x1="110.167" y1="173.05" x2="163.82" y2="123.969" gradientUnits="userSpaceOnUse">
<stop stop-color="white"/>
<stop offset="1" stop-color="white" stop-opacity="0.4"/>
</linearGradient>
<linearGradient id="paint5_linear_542_1213" x1="89.4777" y1="140.854" x2="130.471" y2="99.8832" gradientUnits="userSpaceOnUse">
<stop stop-color="white"/>
<stop offset="1" stop-color="white" stop-opacity="0.4"/>
</linearGradient>
<linearGradient id="paint6_linear_542_1213" x1="71.7646" y1="111.419" x2="66.0345" y2="99.8167" gradientUnits="userSpaceOnUse">
<stop stop-color="#FCFCFC"/>
<stop offset="1" stop-color="white" stop-opacity="0"/>
</linearGradient>
<linearGradient id="paint7_linear_542_1213" x1="71.7646" y1="137.419" x2="66.0345" y2="125.817" gradientUnits="userSpaceOnUse">
<stop stop-color="#FCFCFC"/>
<stop offset="1" stop-color="white" stop-opacity="0"/>
</linearGradient>
<linearGradient id="paint8_linear_542_1213" x1="102.672" y1="59.4188" x2="99.8468" y2="45.5626" gradientUnits="userSpaceOnUse">
<stop stop-color="#FCFCFC"/>
<stop offset="1" stop-color="white" stop-opacity="0"/>
</linearGradient>
<linearGradient id="paint9_linear_542_1213" x1="97.8867" y1="85.4188" x2="94.8049" y2="71.6778" gradientUnits="userSpaceOnUse">
<stop stop-color="#FCFCFC"/>
<stop offset="1" stop-color="white" stop-opacity="0"/>
</linearGradient>
<linearGradient id="paint10_linear_542_1213" x1="16.3542" y1="61.4431" x2="29.6125" y2="40.7919" gradientUnits="userSpaceOnUse">
<stop stop-color="white"/>
<stop offset="1" stop-color="white" stop-opacity="0.4"/>
</linearGradient>
<linearGradient id="paint11_linear_542_1213" x1="16.3542" y1="87.1364" x2="29.6125" y2="66.4852" gradientUnits="userSpaceOnUse">
<stop stop-color="white"/>
<stop offset="1" stop-color="white" stop-opacity="0.4"/>
</linearGradient>
<linearGradient id="paint12_linear_542_1213" x1="16.3542" y1="113.136" x2="29.6125" y2="92.4852" gradientUnits="userSpaceOnUse">
<stop stop-color="white"/>
<stop offset="1" stop-color="white" stop-opacity="0.4"/>
</linearGradient>
<linearGradient id="paint13_linear_542_1213" x1="16.3542" y1="139.499" x2="29.6125" y2="118.848" gradientUnits="userSpaceOnUse">
<stop stop-color="white"/>
<stop offset="1" stop-color="white" stop-opacity="0.4"/>
</linearGradient>
<clipPath id="clip0_542_1213">
<rect width="159" height="160" fill="white" transform="translate(0 0.889648)"/>
</clipPath>
</defs>
</svg>
