<svg width="179" height="180" viewBox="0 0 179 180" fill="none" xmlns="http://www.w3.org/2000/svg">
<g filter="url(#filter0_b_421_1859)">
<circle cx="81.7852" cy="99" r="81" fill="url(#paint0_linear_421_1859)" fill-opacity="0.3"/>
<circle cx="81.7852" cy="99" r="80.5" stroke="white" stroke-opacity="0.05"/>
</g>
<g filter="url(#filter1_b_421_1859)">
<circle cx="81.7852" cy="99" r="57.5" fill="url(#paint1_linear_421_1859)" fill-opacity="0.3"/>
<circle cx="81.7852" cy="99" r="57" stroke="white" stroke-opacity="0.1"/>
</g>
<g filter="url(#filter2_b_421_1859)">
<circle cx="81.7852" cy="99" r="35" fill="url(#paint2_linear_421_1859)" fill-opacity="0.5"/>
<circle cx="81.7852" cy="99" r="34.5" stroke="white" stroke-opacity="0.1"/>
</g>
<path d="M79.0343 100.696L81.5474 82.0896M79.0343 100.696L97.5448 97.5532M79.0343 100.696L140.888 36.7072M165.037 11.7241L165.037 1.19599L152.962 9.65035M165.037 11.7241L177.535 12.6963L168.658 24.2156M165.037 11.7241L152.962 24.2156M140.888 36.7072L140.576 18.3231L152.962 9.65035M140.888 36.7072L159.272 36.3952L168.658 24.2156M140.888 36.7072L152.962 24.2156M152.962 24.2156L152.962 9.65035M152.962 24.2156L168.658 24.2156" stroke="url(#paint3_linear_421_1859)" stroke-width="2" stroke-linecap="round" stroke-linejoin="round"/>
<defs>
<filter id="filter0_b_421_1859" x="-2.51272" y="14.7021" width="168.596" height="168.596" filterUnits="userSpaceOnUse" color-interpolation-filters="sRGB">
<feFlood flood-opacity="0" result="BackgroundImageFix"/>
<feGaussianBlur in="BackgroundImageFix" stdDeviation="1.64894"/>
<feComposite in2="SourceAlpha" operator="in" result="effect1_backgroundBlur_421_1859"/>
<feBlend mode="normal" in="SourceGraphic" in2="effect1_backgroundBlur_421_1859" result="shape"/>
</filter>
<filter id="filter1_b_421_1859" x="20.9873" y="38.2021" width="121.596" height="121.596" filterUnits="userSpaceOnUse" color-interpolation-filters="sRGB">
<feFlood flood-opacity="0" result="BackgroundImageFix"/>
<feGaussianBlur in="BackgroundImageFix" stdDeviation="1.64894"/>
<feComposite in2="SourceAlpha" operator="in" result="effect1_backgroundBlur_421_1859"/>
<feBlend mode="normal" in="SourceGraphic" in2="effect1_backgroundBlur_421_1859" result="shape"/>
</filter>
<filter id="filter2_b_421_1859" x="43.4873" y="60.7021" width="76.5957" height="76.5957" filterUnits="userSpaceOnUse" color-interpolation-filters="sRGB">
<feFlood flood-opacity="0" result="BackgroundImageFix"/>
<feGaussianBlur in="BackgroundImageFix" stdDeviation="1.64894"/>
<feComposite in2="SourceAlpha" operator="in" result="effect1_backgroundBlur_421_1859"/>
<feBlend mode="normal" in="SourceGraphic" in2="effect1_backgroundBlur_421_1859" result="shape"/>
</filter>
<linearGradient id="paint0_linear_421_1859" x1="162.785" y1="177.979" x2="27.7354" y2="72.23" gradientUnits="userSpaceOnUse">
<stop stop-color="#FCFCFC"/>
<stop offset="1" stop-color="white" stop-opacity="0"/>
</linearGradient>
<linearGradient id="paint1_linear_421_1859" x1="139.285" y1="155.065" x2="43.4165" y2="79.9966" gradientUnits="userSpaceOnUse">
<stop stop-color="#FCFCFC"/>
<stop offset="1" stop-color="white" stop-opacity="0"/>
</linearGradient>
<linearGradient id="paint2_linear_421_1859" x1="116.785" y1="133.127" x2="58.4303" y2="87.4327" gradientUnits="userSpaceOnUse">
<stop stop-color="#FCFCFC"/>
<stop offset="1" stop-color="white" stop-opacity="0"/>
</linearGradient>
<linearGradient id="paint3_linear_421_1859" x1="80.2852" y1="100.696" x2="166.035" y2="10.1963" gradientUnits="userSpaceOnUse">
<stop stop-color="white"/>
<stop offset="1" stop-color="white" stop-opacity="0.4"/>
</linearGradient>
</defs>
</svg>
