<svg width="95" height="39" viewBox="0 0 95 39" fill="none" xmlns="http://www.w3.org/2000/svg">
<path fill-rule="evenodd" clip-rule="evenodd" d="M1.19531 9.15369C1.19531 7.38815 2.62297 6.21509 4.38852 6.434C6.79888 6.72191 6.74654 9.76521 4.96434 9.73665C5.40691 9.26077 4.99289 8.68257 4.56221 8.50411C4.22909 8.46366 3.42246 8.3542 3.32491 9.29884C3.29635 10.1221 4.05539 10.184 4.38852 10.2244C5.43071 10.3577 6.47766 10.4624 7.52461 10.5409C8.39786 10.6051 9.26636 10.6623 10.142 10.6956C11.0176 10.7289 11.8718 10.7598 12.7403 10.7765C29.6486 11.0311 46.5593 6.7457 63.4723 9.67241V12.266C46.3522 9.3036 29.2441 13.7222 12.1312 13.3534C11.1604 13.3367 10.1872 13.2963 9.20925 13.2439C7.60551 13.1535 5.99463 13.006 4.38852 12.818C2.62297 12.611 1.19531 10.9145 1.19531 9.15369Z" fill="#331414" stroke="white" stroke-width="0.606756"/>
<path fill-rule="evenodd" clip-rule="evenodd" d="M11.2695 7.26205C11.2695 5.49651 12.6972 4.40673 14.4604 4.66133C16.4281 5.11105 17.2395 8.15434 14.5769 7.81408C14.7483 6.69337 13.7822 7.10025 13.8631 7.76174C13.8684 7.92734 13.9299 8.08621 14.0376 8.2121C14.1454 8.33799 14.2928 8.42337 14.4556 8.45415C15.4978 8.61357 16.5447 8.73017 17.5917 8.81583C18.4649 8.88959 19.3334 8.93718 20.2091 8.96573C21.0847 8.99428 21.9461 9.00618 22.8098 8.99904C39.7561 8.28521 56.6549 -1.47047 73.5275 7.05504V9.64387C56.3694 7.97826 39.2446 13.9982 22.1983 11.595C21.2275 11.595 20.2535 11.5696 19.2763 11.5189C17.6726 11.438 16.0617 11.2809 14.4556 11.043C12.6948 10.7884 11.2695 9.02284 11.2695 7.26205Z" fill="#D6BD9F"/>
<path d="M42.3999 3.13848C53.0645 1.09692 64.0765 1.47287 74.7412 6.43876L73.7894 6.88847V9.99363L73.4658 9.89608C63.2342 8.45414 52.9408 11.3475 42.407 11.4665V11.5474C52.0771 12.078 62.242 8.75157 73.2754 9.29884V7.22159C62.8059 2.29854 51.9795 3.52871 42.407 6.23888L42.3999 3.13848ZM41.2958 3.35739C41.6646 3.28124 42.0335 3.20748 42.3999 3.13848V6.23174C41.8312 6.3983 41.2673 6.56011 40.7105 6.73143C34.7619 7.96159 28.8133 9.19414 22.8647 9.25125H22.829C22.3912 9.25125 21.9558 9.25125 21.5227 9.25125C21.0897 9.25125 20.6495 9.25125 20.2164 9.22269C19.7834 9.19414 19.3313 9.187 18.9006 9.16559C18.4699 9.14417 18.0083 9.10848 17.5824 9.07279C17.0589 9.02758 16.5354 8.97523 16.0072 8.91813C15.479 8.86102 14.9531 8.78488 14.4296 8.71112C14.2681 8.68251 14.1161 8.61458 13.987 8.51333C13.858 8.41207 13.7558 8.28061 13.6896 8.13053C13.6616 8.07365 13.64 8.01378 13.6254 7.95208C13.6139 7.88688 13.6083 7.82078 13.6087 7.75458C13.6101 7.71234 13.6141 7.67023 13.6206 7.62847C13.811 6.34596 15.4671 7.03599 14.5938 7.80693C16.1809 7.72127 16.2737 5.89149 15.1054 5.0801C14.8903 5.00482 14.6689 4.94908 14.4439 4.91354C14.2863 4.89037 14.1273 4.87923 13.968 4.88022C13.3889 4.86679 12.8233 5.05617 12.369 5.4156C11.9334 5.77408 11.6495 6.2841 11.5743 6.84326C11.556 6.97893 11.5465 7.11563 11.5457 7.25252C11.5661 7.85615 11.731 8.44608 12.0266 8.97275C12.3222 9.49942 12.74 9.94744 13.2447 10.2792C13.436 10.4072 13.6401 10.5148 13.8538 10.6004C14.0673 10.6834 14.289 10.7432 14.5153 10.7788C15.3259 10.901 16.1254 10.9985 16.9138 11.0715C17.7132 11.1524 18.5127 11.2095 19.317 11.25C20.2902 11.2976 21.2562 11.319 22.2223 11.319C28.4992 11.319 34.9998 12.4016 41.2934 11.4641C41.667 11.4927 42.0454 11.5212 42.4189 11.5379V11.457C42.0454 11.457 41.6718 11.457 41.2934 11.457C34.9879 12.3945 28.5516 11.8425 22.2223 11.8425C21.2443 11.8425 20.2664 11.8139 19.2884 11.7663C18.4842 11.7259 17.6728 11.6688 16.8685 11.5879C16.0643 11.507 15.2196 11.4213 14.4201 11.3071C14.1545 11.2676 13.8943 11.1982 13.6444 11.1001C13.3936 11.0009 13.1542 10.8749 12.9306 10.7241C12.354 10.3446 11.8773 9.83186 11.5406 9.22929C11.2039 8.62672 11.0171 7.95198 10.9961 7.26204C10.9959 7.09879 11.0078 6.93574 11.0318 6.77426C11.1216 6.08419 11.4714 5.45441 12.0097 5.01347C12.5577 4.57627 13.241 4.344 13.9418 4.35675C14.1249 4.35865 14.3077 4.37216 14.4891 4.3972C14.7513 4.43947 15.0093 4.50476 15.26 4.59231C15.5074 4.68478 15.7463 4.79863 15.9739 4.93257C17.1255 5.61785 17.1065 7.29773 15.9001 8.12578C24.3209 8.21619 32.6918 5.13958 41.2958 3.35739Z" fill="#331414"/>
<path fill-rule="evenodd" clip-rule="evenodd" d="M8.67188 6.58868C8.67188 3.39547 11.2726 1.67752 14.4587 2.06775C17.6447 2.45798 19.4055 7.80219 15.4104 8.21145C15.8126 8.48746 17.7399 5.19195 14.4587 4.66133C12.6931 4.40435 11.2678 5.49651 11.2678 7.26206C11.2678 9.0276 12.6931 10.7884 14.4539 11.0477C16.06 11.2857 17.6709 11.438 19.2746 11.5236C20.2518 11.576 21.2258 11.6014 22.1966 11.5998C39.5474 13.8483 56.2059 8.53743 73.5258 9.64863V11.0573C55.8561 5.88674 38.1888 14.6645 20.5167 14.16C18.4873 14.1079 16.4627 13.9347 14.4539 13.6413C11.2607 13.175 8.67188 9.78664 8.67188 6.58868Z" fill="#331414"/>
<path d="M20.5227 14.4479C38.0329 16.4181 55.2101 9.79374 72.9059 10.617L73.2962 9.82229C61.8749 8.73013 51.2935 10.9835 41.2832 10.6051C34.9801 11.5426 28.5247 11.8353 22.2025 11.8305C21.6457 11.8305 21.0818 11.8305 20.5227 11.8067V11.3475C27.2874 11.6235 32.6578 10.962 39.6034 9.91985C50.0277 13.4295 62.6196 10.8335 73.7673 9.47013L73.3771 11.2428C55.6193 6.0485 38.2637 14.6359 20.5227 14.3504V14.4479ZM20.5227 7.01455V6.81468C20.5702 6.80278 20.6226 6.78375 20.6726 6.76709C20.713 6.85989 20.7535 6.94555 20.7892 7.03121C20.7014 7.01463 20.6118 7.00904 20.5227 7.01455ZM8.4375 6.58864C8.4375 3.45968 10.698 1.9297 13.2178 1.80835C13.1083 1.96539 13.2178 1.90591 13.1369 2.04629C11.1191 2.20334 9.28934 3.60006 8.96098 5.85339C8.5065 9.04183 11.1239 13.0607 14.4955 13.4057C16.4817 13.8747 18.4944 14.2227 20.5227 14.4479V14.3504C18.48 14.325 16.4413 14.166 14.4194 13.8745C11.0715 13.3819 8.4375 9.89605 8.4375 6.58864ZM20.5227 11.8067V11.3475C19.8517 11.3166 19.1664 11.2833 18.4644 11.2381C18.3145 11.7377 17.941 11.4903 17.665 11.6521C18.6167 11.7266 19.5685 11.7782 20.5203 11.8067H20.5227ZM20.5227 6.80992C20.435 6.82202 20.3462 6.82202 20.2585 6.80992C20.2953 6.86933 20.3241 6.93334 20.3442 7.00028H20.5227V6.80992Z" fill="white"/>
<path fill-rule="evenodd" clip-rule="evenodd" d="M16.8945 17.1153C16.8945 18.8832 18.9765 20.7011 20.7992 20.0277C22.6218 19.3543 23.6022 17.7768 21.5701 17.2033C19.6951 19.2853 18.2865 15.9137 20.7992 16.2301C21.8414 16.3887 22.8867 16.5093 23.9353 16.5918C24.8038 16.6608 25.6794 16.7131 26.5527 16.7417C27.4259 16.7703 28.2849 16.7821 29.1534 16.7774C42.1118 16.6608 56.643 10.686 69.6038 11.0525C73.23 11.1572 70.8815 10.529 74.6149 10.8621C81.1036 11.8139 94.081 16.5299 94.081 19.666C94.081 18.7975 94.5236 17.7315 94.5236 16.8702C95.1042 15.9184 80.7538 9.22506 79.6498 10.2673C62.8034 5.71063 45.3883 14.1933 28.5419 14.1814C27.5711 14.1814 26.5931 14.16 25.6199 14.1124C24.0162 14.0339 22.4053 13.8745 20.7992 13.6365C18.2817 12.8489 16.8945 15.3569 16.8945 17.1153Z" fill="#935D49" stroke="white" stroke-width="0.606756"/>
<path fill-rule="evenodd" clip-rule="evenodd" d="M14.1211 16.0279C14.1211 18.9046 15.594 20.7701 18.7848 21.2293C23.6912 21.5577 23.8244 16.1445 21.219 16.6727C22.7323 19.2282 17.1525 20.4346 17.1739 16.2991C17.1739 14.5336 19.0322 13.382 20.7978 13.6413C22.4039 13.8793 24.0148 14.0339 25.6185 14.1172C26.5917 14.1648 27.5697 14.1862 28.5405 14.1862C45.3036 14.1862 69.9879 8.23762 79.6412 10.2768C86.7272 11.7758 92.5378 14.6811 94.3937 16.2706V11.4618C92.7543 10.6623 80.6953 8.64926 79.7983 8.62071C66.966 8.18765 54.305 11.6283 40.1474 10.7622C36.0738 11.2 31.0079 11.6021 26.8535 11.5688C24.8255 11.5148 22.8026 11.34 20.7954 11.0454C17.5998 10.5861 14.1711 12.849 14.1211 16.0279Z" fill="#331414" stroke="white" stroke-width="0.606756"/>
<path fill-rule="evenodd" clip-rule="evenodd" d="M46.5417 10.5409C45.954 8.45887 47.2841 6.73378 49.4232 6.36021C51.6789 6.13416 52.7306 8.82054 52.2428 9.64859C49.6826 8.43032 49.0615 9.27977 49.7516 10.2315C49.8112 10.4254 49.9376 10.5918 50.1084 10.7012C50.2792 10.8106 50.4833 10.8558 50.6843 10.8288C67.6068 8.30896 72.7678 -6.35312 94.4041 6.33641V7.42382C76.8176 4.31151 75.6541 4.973 60.6351 11.1833C59.531 11.6449 58.408 12.0637 57.2753 12.4373C55.4061 13.0664 53.4903 13.5477 51.5457 13.8768C49.4065 14.2504 47.1294 12.611 46.5417 10.5409Z" fill="#331414"/>
<path d="M46.102 10.6623C45.4334 8.30425 47.0395 6.30076 49.3523 5.9034C50.542 5.70591 51.3177 5.75349 51.9102 6.17228C52.8786 6.85041 53.0999 8.33042 53.4188 9.41783C52.6003 8.0901 50.1661 14.5622 71.6167 0.980347C71.701 1.27631 71.8571 1.54685 72.0712 1.76794C65.1446 5.88198 58.4608 9.83423 50.7705 11.2857C49.6379 11.5046 48.8265 10.303 49.0668 9.28934C49.5427 7.77126 51.4724 7.90926 52.2362 9.16323C52.536 8.4256 51.8008 7.38579 51.2844 7.07408C50.9228 6.82186 50.4445 6.66006 49.5022 6.8171C49.1159 6.87552 48.7454 7.01126 48.4127 7.2162C48.0801 7.42114 47.7922 7.69106 47.5663 8.00983C47.3404 8.32859 47.1811 8.68965 47.0979 9.0714C47.0148 9.45315 47.0095 9.84775 47.0823 10.2316C47.4226 12.2398 49.4237 13.7698 51.4724 13.42C53.3925 13.087 55.2847 12.6098 57.1331 11.9924C61.1995 11.0644 67.9405 7.28109 73.2728 4.81838C72.6066 5.23716 71.8451 5.53221 71.2312 6.03189C70.9807 6.22963 70.8114 6.51239 70.7553 6.82662C66.4367 9.1204 62.0633 11.3309 57.4305 12.8656C55.5397 13.5 53.6026 13.9869 51.6366 14.3218C49.2405 14.7525 46.7445 12.9513 46.102 10.6623Z" fill="white"/>
<path fill-rule="evenodd" clip-rule="evenodd" d="M43.2467 10.5005C42.4472 5.94862 46.0307 3.34552 48.56 3.30983C56.3265 3.20751 55.2986 9.79855 52.1053 10.0936C53.1047 8.49224 51.8674 6.00335 49.7259 6.36026C47.5844 6.71718 46.1734 8.80394 46.7611 10.8931C47.0477 11.8951 47.6954 12.7553 48.5791 13.3077C49.4629 13.8601 50.5199 14.0654 51.5462 13.884C53.494 13.5554 55.413 13.0741 57.2854 12.4445C58.418 12.0709 59.5411 11.6521 60.6451 11.1905C74.9218 5.04681 76.2447 -1.11354 94.407 7.38342V8.57314C76.1353 5.36328 75.4 9.18227 59.5744 14.9976C57.2558 15.8674 54.8602 16.5159 52.4194 16.9345C47.5297 18.267 43.3205 14.8953 43.2467 10.5005Z" fill="#935D49" stroke="white" stroke-width="0.606756"/>
<path fill-rule="evenodd" clip-rule="evenodd" d="M75.7891 11.081C82.5705 12.5087 94.2773 17.8981 94.3986 20.7748V16.5632C92.9186 14.931 79.9935 9.09657 78.9704 10.0531C77.9246 9.78095 76.8618 9.57904 75.7891 9.44873V11.081Z" fill="#D6BD9F" stroke="white" stroke-width="0.475887"/>
<path fill-rule="evenodd" clip-rule="evenodd" d="M39.6417 11.2309C39.1016 5.24904 42.0354 1.66561 47.2178 0.423549C59.1483 -1.06122 57.8182 11.8115 51.5769 9.96509C56.3763 9.13704 54.6036 2.96003 49.2261 3.35025C45.3024 3.63817 42.0878 7.22873 43.6344 12.2565C44.6932 16.0184 48.5408 17.6174 52.4121 16.9368C54.8532 16.5152 57.2489 15.8635 59.5671 14.9905C76.4397 8.16623 78.4812 2.61739 94.3997 8.51839V11.5831C74.755 4.90403 72.2471 16.9321 53.2069 20.6607C46.2684 22.0122 40.1818 17.22 39.6417 11.2309Z" fill="#331414" stroke="white" stroke-width="0.606756"/>
<path d="M44.9128 28.8102H43.8492C43.4167 28.8178 42.9874 28.7354 42.5884 28.5683C42.1895 28.4012 41.8296 28.153 41.5316 27.8394C41.2238 27.5341 40.9809 27.1698 40.8173 26.7682C40.6538 26.3667 40.573 25.9363 40.5799 25.5028V22.2882C40.5831 21.9834 40.5239 21.6812 40.4061 21.4001C40.2882 21.119 40.1142 20.8649 39.8946 20.6535C39.683 20.4316 39.4275 20.2561 39.1445 20.1381C38.8615 20.0202 38.557 19.9623 38.2504 19.9682V25.5028C38.2413 26.2323 38.3848 26.9556 38.6716 27.6264C38.9584 28.2972 39.3823 28.9006 39.916 29.398C40.4312 29.917 41.0455 30.3272 41.7224 30.6039C42.3994 30.8807 43.1251 31.0184 43.8564 31.0088H47.1186C47.1179 30.4259 46.8861 29.8671 46.4739 29.4549C46.0617 29.0427 45.5029 28.8109 44.92 28.8102H44.9128Z" fill="#331414"/>
<path d="M30.6363 21.1936C30.5253 20.9882 30.3841 20.8005 30.2176 20.6369C30.0055 20.4168 29.7507 20.2425 29.4687 20.1246C29.1868 20.0068 28.8837 19.9479 28.5781 19.9516V25.0602C28.5781 25.1982 28.5781 25.3362 28.5781 25.4742V31.0088C29.1912 31.0038 29.7778 30.7581 30.2114 30.3245C30.645 29.891 30.8907 29.3044 30.8957 28.6912V25.4742C30.8881 25.0399 30.9684 24.6086 31.132 24.2062C31.2956 23.8038 31.539 23.4387 31.8475 23.1329C32.1449 22.8186 32.5047 22.57 32.9038 22.4028C33.3028 22.2356 33.7324 22.1536 34.165 22.1621H35.2239C35.5128 22.1671 35.7998 22.1128 36.067 22.0028C36.3342 21.8927 36.5761 21.7291 36.7777 21.522C36.984 21.3198 37.1473 21.0778 37.2578 20.8108C37.3682 20.5438 37.4234 20.2572 37.4201 19.9682H34.1579C32.8764 19.9493 31.6293 20.3832 30.6363 21.1936Z" fill="#331414"/>
<path d="M24.9258 19.9682V28.6912C24.9314 29.3041 25.1773 29.8904 25.6108 30.3238C26.0442 30.7572 26.6304 31.0032 27.2434 31.0088V22.2882C27.2384 21.6748 26.9927 21.088 26.5592 20.654C26.1257 20.2201 25.5391 19.9738 24.9258 19.9682Z" fill="#331414"/>
<path d="M18.2479 19.9682C17.5155 19.9586 16.7888 20.0974 16.1116 20.3764C15.4344 20.6553 14.8207 21.0685 14.3075 21.591C13.785 22.098 13.3697 22.7048 13.086 23.3753C12.8024 24.0458 12.6562 24.7664 12.6563 25.4945C12.6562 26.2225 12.8024 26.9432 13.086 27.6137C13.3697 28.2842 13.785 28.8909 14.3075 29.3979C14.822 29.9179 15.4362 30.3286 16.1133 30.6054C16.7904 30.8822 17.5164 31.0194 18.2479 31.0088H23.8514V25.5028C23.861 24.7708 23.7178 24.0449 23.431 23.3713C23.1442 22.6978 22.7201 22.0915 22.1858 21.591C21.6723 21.0696 21.0588 20.6572 20.3822 20.3784C19.7056 20.0995 18.9796 19.96 18.2479 19.9682ZM21.5029 28.8102H18.2479C17.8159 28.8189 17.387 28.737 16.9886 28.5698C16.5903 28.4026 16.2314 28.1538 15.935 27.8394C15.627 27.5343 15.3839 27.1699 15.2203 26.7684C15.0568 26.3668 14.9761 25.9363 14.9833 25.5028C14.9771 25.0669 15.0582 24.6342 15.2216 24.2301C15.3851 23.826 15.6276 23.4586 15.935 23.1495C16.234 22.8375 16.593 22.5891 16.9905 22.4194C17.388 22.2498 17.8157 22.1623 18.2479 22.1623C18.68 22.1623 19.1077 22.2498 19.5052 22.4194C19.9027 22.5891 20.2617 22.8375 20.5607 23.1495C20.8668 23.4596 21.1085 23.8271 21.2719 24.231C21.4352 24.6349 21.517 25.0672 21.5124 25.5028L21.5029 28.8102Z" fill="#331414"/>
<path d="M47.8359 20.0729V29.3527C47.8415 29.9669 48.0885 30.5542 48.5235 30.9878C48.9584 31.4214 49.5465 31.6666 50.1606 31.6703V22.3905C50.155 21.7764 49.9081 21.189 49.4731 20.7554C49.0382 20.3218 48.4501 20.0767 47.8359 20.0729Z" fill="#331414"/>
<path d="M9.19333 19.9682V24.3987H4.04423V22.2882C4.04898 21.9832 3.99055 21.6805 3.87261 21.3991C3.75468 21.1178 3.57979 20.8639 3.35895 20.6535C3.14896 20.4327 2.89551 20.2579 2.61457 20.1399C2.33364 20.022 2.03131 19.9635 1.72666 19.9682V28.6912C1.7238 28.9956 1.7831 29.2974 1.90093 29.5781C2.01877 29.8587 2.19265 30.1124 2.41194 30.3235C2.62289 30.543 2.87653 30.7171 3.15724 30.8349C3.43795 30.9528 3.7398 31.0119 4.04423 31.0088V26.5783H9.19333V28.6912C9.19892 29.3042 9.44488 29.8904 9.87831 30.3238C10.3117 30.7572 10.898 31.0032 11.5109 31.0088V22.2882C11.5125 21.9833 11.4536 21.6811 11.3377 21.3991C11.2219 21.117 11.0512 20.8608 10.8358 20.6451C10.6203 20.4293 10.3642 20.2585 10.0823 20.1423C9.80036 20.0261 9.49823 19.967 9.19333 19.9682Z" fill="#331414"/>
<path d="M65.5017 19.9682C64.7703 19.9581 64.0445 20.0967 63.3684 20.3756C62.6922 20.6546 62.0799 21.0681 61.5684 21.591C60.8042 22.3209 60.2749 23.2619 60.048 24.294C59.8798 25.0911 59.8798 25.9145 60.048 26.7116C60.2753 27.7387 60.8049 28.6743 61.5684 29.3979C62.0811 29.9184 62.694 30.3294 63.37 30.6063C64.0461 30.8832 64.7712 31.0201 65.5017 31.0088H68.7686C68.7737 30.719 68.7185 30.4313 68.6067 30.1638C68.4949 29.8964 68.3289 29.655 68.119 29.455C67.9164 29.2477 67.6738 29.0836 67.4059 28.9727C67.138 28.8619 66.8504 28.8066 66.5605 28.8102H65.5017C65.0703 28.8179 64.6421 28.7347 64.2449 28.5663C63.8477 28.3978 63.4903 28.1477 63.196 27.8323C62.8894 27.5275 62.6471 27.1643 62.4836 26.7641C62.3201 26.364 62.2387 25.935 62.2442 25.5028C62.24 25.0683 62.3219 24.6372 62.4853 24.2345C62.6486 23.8318 62.8902 23.4654 63.196 23.1567C63.4888 22.8382 63.8455 22.585 64.2428 22.4137C64.6401 22.2423 65.069 22.1566 65.5017 22.1621H66.5653C66.8548 22.1663 67.1422 22.1118 67.4101 22.0018C67.678 21.8917 67.9208 21.7285 68.1238 21.522C68.3336 21.322 68.4997 21.0807 68.6115 20.8132C68.7233 20.5458 68.7784 20.2581 68.7734 19.9682H65.5017Z" fill="#331414"/>
<path d="M64.7246 24.3987C64.58 24.3943 64.4361 24.4202 64.3021 24.4747C64.1681 24.5292 64.047 24.6111 63.9465 24.7152C63.8444 24.8187 63.7643 24.9419 63.7112 25.0773C63.658 25.2127 63.6328 25.3574 63.6372 25.5028C63.6328 25.645 63.658 25.7865 63.7113 25.9184C63.7645 26.0503 63.8447 26.1697 63.9465 26.269C64.0478 26.3695 64.1682 26.4487 64.3006 26.5018C64.4331 26.555 64.5748 26.581 64.7175 26.5783H66.5639C66.853 26.5835 67.1401 26.53 67.4079 26.4213C67.6758 26.3125 67.9188 26.1506 68.1224 25.9454C68.3325 25.7471 68.4988 25.5071 68.6107 25.2407C68.7226 24.9744 68.7775 24.6876 68.772 24.3987H64.727H64.7246Z" fill="#331414"/>
<path d="M56.9126 22.1621H57.9762C58.4275 22.1621 58.8681 22.0236 59.2382 21.7653C59.6084 21.507 59.8905 21.1414 60.0463 20.7178C60.1311 20.477 60.1745 20.2236 60.1748 19.9683H56.9126C56.1816 19.958 55.4561 20.0949 54.7791 20.3708C54.1022 20.6467 53.4877 21.056 52.9722 21.5744C52.4412 22.0741 52.0201 22.6789 51.7358 23.3504C51.4515 24.0218 51.3102 24.7452 51.3209 25.4743V31.4467C51.9355 31.4429 52.5239 31.1974 52.9589 30.7633C53.3939 30.3292 53.6406 29.7413 53.6456 29.1267V25.4743C53.6392 25.0401 53.7201 24.6091 53.8836 24.2069C54.0471 23.8047 54.2899 23.4394 54.5974 23.1329C54.8951 22.8197 55.2545 22.5716 55.6531 22.4045C56.0516 22.2374 56.4805 22.1549 56.9126 22.1621Z" fill="#331414"/>
<path d="M76.4738 21.1937C76.3616 20.9884 76.2196 20.8007 76.0526 20.6369C75.8412 20.4174 75.5871 20.2434 75.306 20.1256C75.0249 20.0078 74.7227 19.9485 74.418 19.9516V30.9922C75.0323 30.9897 75.6206 30.7444 76.0548 30.3098C76.489 29.8752 76.7337 29.2865 76.7355 28.6722V25.46C76.7295 25.0266 76.8106 24.5964 76.9741 24.195C77.1376 23.7936 77.3802 23.4292 77.6873 23.1234C77.9848 22.8081 78.3448 22.5583 78.7442 22.39C79.1437 22.2216 79.5738 22.1383 80.0073 22.1454H81.0804C81.3687 22.1473 81.6545 22.0919 81.9213 21.9825C82.188 21.873 82.4303 21.7117 82.6342 21.5078C82.8381 21.3039 82.9994 21.0616 83.1089 20.7948C83.2184 20.5281 83.2737 20.2423 83.2718 19.954H80.0049C78.7177 19.9332 77.4655 20.3728 76.4738 21.1937Z" fill="#331414"/>
<path d="M71.5633 28.7911C71.3474 28.7902 71.1362 28.8534 70.9563 28.9727C70.7764 29.0919 70.636 29.2619 70.5528 29.4611C70.4697 29.6603 70.4476 29.8797 70.4893 30.0915C70.531 30.3033 70.6346 30.4979 70.7871 30.6507C70.9395 30.8035 71.1339 30.9075 71.3456 30.9497C71.5573 30.9919 71.7767 30.9702 71.9761 30.8875C72.1755 30.8048 72.3458 30.6648 72.4655 30.4851C72.5851 30.3055 72.6488 30.0944 72.6483 29.8786C72.6477 29.5908 72.5332 29.3149 72.33 29.1112C72.1267 28.9074 71.8511 28.7924 71.5633 28.7911Z" fill="#331414"/>
<path d="M93.7062 20.5631C93.4937 20.3431 93.2384 20.1688 92.9561 20.051C92.6737 19.9332 92.3703 19.8742 92.0644 19.8778V28.6603C92.0644 28.7008 92.0644 28.7412 92.0644 28.7817H89.6445C89.2121 28.7893 88.7827 28.7069 88.3838 28.5397C87.9848 28.3726 87.6249 28.1244 87.327 27.8109C87.0195 27.5043 86.7767 27.1391 86.6132 26.7369C86.4497 26.3347 86.3688 25.9037 86.3752 25.4695V22.2525C86.3714 21.6386 86.1257 21.0509 85.6914 20.6171C85.2571 20.1832 84.6692 19.9381 84.0552 19.9349V25.46C84.0447 26.1891 84.186 26.9124 84.4703 27.5838C84.7546 28.2552 85.1757 28.8601 85.7066 29.3599C86.222 29.8781 86.836 30.2879 87.5123 30.565C88.1887 30.842 88.9137 30.9808 89.6445 30.9731H94.3915V22.1954C94.3954 21.8909 94.3365 21.5888 94.2186 21.308C94.1007 21.0272 93.9263 20.7736 93.7062 20.5631Z" fill="#331414"/>
<path d="M55.5839 24.3987C55.4397 24.3944 55.2961 24.4203 55.1625 24.4748C55.0289 24.5293 54.9082 24.6112 54.8082 24.7152C54.7057 24.8186 54.6253 24.9417 54.5717 25.0771C54.5182 25.2125 54.4926 25.3573 54.4965 25.5028C54.4936 25.6454 54.5202 25.7871 54.5747 25.9189C54.6291 26.0508 54.7103 26.17 54.813 26.269C54.9144 26.3692 55.0349 26.4481 55.1673 26.5012C55.2996 26.5544 55.4413 26.5806 55.5839 26.5783H57.4208C57.7099 26.5835 57.997 26.53 58.2648 26.4213C58.5327 26.3125 58.7757 26.1506 58.9793 25.9454C59.189 25.7467 59.355 25.5066 59.4668 25.2404C59.5786 24.9741 59.6338 24.6875 59.6289 24.3987H55.5839Z" fill="#331414"/>
<path d="M3.95751 37.8885H3.47698V35.4475H2.18362V37.8885H1.70309V35.0335H3.95751V37.8885ZM7.00175 36.4623C7.00175 36.9428 6.88588 37.3143 6.65413 37.5767C6.42238 37.8374 6.11395 37.9678 5.72884 37.9678C5.33181 37.9678 5.01912 37.8332 4.79078 37.5639C4.56414 37.293 4.45083 36.9258 4.45083 36.4623C4.45083 35.9852 4.56755 35.6145 4.801 35.3504C5.03616 35.0863 5.34544 34.9542 5.72884 34.9542C6.11395 34.9542 6.42238 35.0863 6.65413 35.3504C6.88588 35.6128 7.00175 35.9835 7.00175 36.4623ZM6.50588 36.4623C6.50588 36.0925 6.43857 35.8182 6.30395 35.6392C6.16933 35.4586 5.97763 35.3683 5.72884 35.3683C5.47835 35.3683 5.28495 35.4586 5.14862 35.6392C5.01401 35.8182 4.9467 36.0925 4.9467 36.4623C4.9467 36.8201 5.01401 37.0919 5.14862 37.2777C5.28495 37.4617 5.47835 37.5537 5.72884 37.5537C5.97593 37.5537 6.16678 37.4634 6.3014 37.2828C6.43772 37.1004 6.50588 36.8269 6.50588 36.4623ZM9.89007 36.3856C9.89007 36.861 9.7759 37.2402 9.54756 37.523C9.32092 37.8042 9.0338 37.9448 8.68618 37.9448C8.54474 37.9448 8.4195 37.9286 8.31044 37.8962C8.20138 37.8638 8.08977 37.8136 7.9756 37.7454V38.9416H7.49506V35.0335H7.9756V35.3325C8.09488 35.2252 8.22694 35.1357 8.37178 35.0641C8.51833 34.9909 8.67766 34.9542 8.84976 34.9542C9.17693 34.9542 9.43169 35.0837 9.61402 35.3427C9.79805 35.6018 9.89007 35.9494 9.89007 36.3856ZM9.3942 36.4393C9.3942 36.1138 9.34222 35.8616 9.23828 35.6827C9.13433 35.5021 8.96564 35.4118 8.73218 35.4118C8.59586 35.4118 8.4638 35.4424 8.336 35.5038C8.2099 35.5634 8.08977 35.6409 7.9756 35.7364V37.3543C8.1017 37.4157 8.20905 37.4574 8.29766 37.4796C8.38797 37.5017 8.49106 37.5128 8.60694 37.5128C8.85573 37.5128 9.04913 37.4216 9.18716 37.2393C9.32518 37.057 9.3942 36.7903 9.3942 36.4393ZM12.4742 35.4552H11.5029V37.8885H11.0224V35.4552H10.0511V35.0335H12.4742V35.4552ZM14.427 37.1856V36.3933C14.3129 36.4035 14.168 36.418 13.9925 36.4367C13.8187 36.4538 13.6781 36.4785 13.5708 36.5108C13.443 36.55 13.3373 36.6105 13.2538 36.6923C13.1703 36.7724 13.1286 36.8849 13.1286 37.0297C13.1286 37.1933 13.1746 37.3169 13.2666 37.4003C13.3586 37.4838 13.4932 37.5256 13.6704 37.5256C13.8221 37.5256 13.9593 37.4932 14.082 37.4285C14.2047 37.362 14.3197 37.2811 14.427 37.1856ZM14.427 37.5844C14.3878 37.6134 14.335 37.6542 14.2686 37.7071C14.2038 37.7582 14.1408 37.7991 14.0794 37.8298C13.9942 37.8741 13.9116 37.9081 13.8315 37.932C13.7531 37.9559 13.6423 37.9678 13.4992 37.9678C13.3816 37.9678 13.27 37.9456 13.1643 37.9013C13.0587 37.857 12.9658 37.7948 12.8857 37.7147C12.8091 37.6364 12.7477 37.5401 12.7017 37.4259C12.6557 37.31 12.6327 37.1882 12.6327 37.0604C12.6327 36.8627 12.6744 36.6949 12.7579 36.5569C12.8414 36.4171 12.9735 36.3064 13.1541 36.2246C13.3143 36.1513 13.5034 36.101 13.7216 36.0738C13.9397 36.0448 14.1748 36.0235 14.427 36.0099V35.9178C14.427 35.8054 14.41 35.7151 14.3759 35.6469C14.3418 35.577 14.2941 35.5234 14.2328 35.4859C14.1714 35.4467 14.0964 35.4211 14.0078 35.4092C13.9192 35.3956 13.8281 35.3887 13.7343 35.3887C13.6236 35.3887 13.4932 35.4058 13.3433 35.4399C13.1933 35.4722 13.0434 35.52 12.8934 35.583H12.8653V35.0948C12.9539 35.0692 13.0809 35.0411 13.2461 35.0105C13.4114 34.9798 13.575 34.9644 13.7369 34.9644C13.9329 34.9644 14.0982 34.9798 14.2328 35.0105C14.3674 35.0411 14.4884 35.0965 14.5957 35.1766C14.6997 35.255 14.7772 35.3564 14.8283 35.4808C14.8794 35.6052 14.905 35.7568 14.905 35.9357V37.8885H14.427V37.5844ZM17.7933 37.8885H17.3128V35.4373H16.3313C16.3262 35.5787 16.3211 35.7151 16.3159 35.8463C16.3108 35.9758 16.3057 36.0934 16.3006 36.199C16.2904 36.4665 16.2725 36.6906 16.2469 36.8712C16.2231 37.0519 16.1924 37.1967 16.1549 37.3058C16.1174 37.4182 16.0757 37.506 16.0297 37.569C15.9854 37.6321 15.9351 37.6892 15.8789 37.7403C15.8209 37.7914 15.7587 37.8298 15.6923 37.8553C15.6258 37.8809 15.5508 37.8937 15.4673 37.8937C15.4401 37.8937 15.4051 37.8928 15.3625 37.8911C15.3199 37.8894 15.2901 37.8885 15.2731 37.8885V37.4694H15.2986C15.3106 37.4694 15.3225 37.4702 15.3344 37.4719C15.3481 37.4736 15.3634 37.4745 15.3804 37.4745C15.4213 37.4745 15.4614 37.4685 15.5006 37.4566C15.5398 37.4447 15.5747 37.4225 15.6054 37.3901C15.6906 37.3066 15.7528 37.1609 15.792 36.953C15.8311 36.7434 15.8593 36.4512 15.8763 36.0763C15.8831 35.9366 15.8891 35.7713 15.8942 35.5805C15.901 35.3896 15.907 35.2073 15.9121 35.0335H17.7933V37.8885ZM20.7455 37.8885H20.2701V35.7594L18.9256 37.8885H18.4911V35.0335H18.9665V37.1294L20.2957 35.0335H20.7455V37.8885ZM23.6952 37.8885H23.2147V36.6029H21.9213V37.8885H21.4408V35.0335H21.9213V36.1888H23.2147V35.0335H23.6952V37.8885ZM26.8391 38.5736H26.3918V37.8809H24.5106V38.5736H24.0633V37.4796H24.2524C24.4143 37.2138 24.5464 36.867 24.6486 36.4393C24.7526 36.0099 24.8045 35.5413 24.8045 35.0335H26.5554V37.4796H26.8391V38.5736ZM26.0749 37.4796V35.4373H25.2569C25.2348 35.8633 25.176 36.2527 25.0806 36.6054C24.9869 36.9564 24.8684 37.2478 24.7253 37.4796H26.0749ZM29.5588 35.0335L28.0226 38.9416H27.5088L28.02 37.7505L26.9823 35.0335H27.5011L28.2807 37.1473L29.0578 35.0335H29.5588ZM31.0566 37.9525C30.8606 37.9525 30.6809 37.9226 30.5173 37.863C30.3537 37.8016 30.2131 37.7096 30.0955 37.5869C29.9779 37.4642 29.8868 37.31 29.822 37.1243C29.7573 36.9369 29.7249 36.717 29.7249 36.4648C29.7249 36.2143 29.7581 35.9979 29.8246 35.8156C29.8927 35.6333 29.9831 35.4799 30.0955 35.3555C30.208 35.2311 30.3477 35.1357 30.5147 35.0692C30.6834 35.0011 30.864 34.967 31.0566 34.967C31.2134 34.967 31.3642 34.9892 31.509 35.0335C31.6556 35.0778 31.7859 35.1289 31.9001 35.1868V35.7261H31.872C31.8379 35.6972 31.7936 35.6639 31.7391 35.6265C31.6862 35.589 31.6215 35.5506 31.5448 35.5114C31.4783 35.4774 31.3999 35.4475 31.3096 35.422C31.2193 35.3964 31.1324 35.3836 31.0489 35.3836C30.8001 35.3836 30.5999 35.4782 30.4483 35.6674C30.2983 35.8548 30.2233 36.1206 30.2233 36.4648C30.2233 36.8022 30.2957 37.0655 30.4406 37.2547C30.5871 37.4421 30.7899 37.5358 31.0489 37.5358C31.2057 37.5358 31.3548 37.5034 31.4962 37.4387C31.6377 37.3739 31.7629 37.2904 31.872 37.1882H31.9001V37.7275C31.8524 37.7497 31.7927 37.7769 31.7212 37.8093C31.6496 37.84 31.5848 37.863 31.5269 37.8783C31.4451 37.9022 31.3718 37.9201 31.3071 37.932C31.2423 37.9456 31.1588 37.9525 31.0566 37.9525ZM34.4254 35.4552H33.4541V37.8885H32.9736V35.4552H32.0023V35.0335H34.4254V35.4552ZM37.1783 36.3856C37.1783 36.861 37.0641 37.2402 36.8358 37.523C36.6091 37.8042 36.322 37.9448 35.9744 37.9448C35.833 37.9448 35.7077 37.9286 35.5987 37.8962C35.4896 37.8638 35.378 37.8136 35.2638 37.7454V38.9416H34.7833V35.0335H35.2638V35.3325C35.3831 35.2252 35.5152 35.1357 35.66 35.0641C35.8066 34.9909 35.9659 34.9542 36.138 34.9542C36.4652 34.9542 36.7199 35.0837 36.9022 35.3427C37.0863 35.6018 37.1783 35.9494 37.1783 36.3856ZM36.6824 36.4393C36.6824 36.1138 36.6304 35.8616 36.5265 35.6827C36.4226 35.5021 36.2539 35.4118 36.0204 35.4118C35.8841 35.4118 35.752 35.4424 35.6242 35.5038C35.4981 35.5634 35.378 35.6409 35.2638 35.7364V37.3543C35.3899 37.4157 35.4973 37.4574 35.5859 37.4796C35.6762 37.5017 35.7793 37.5128 35.8952 37.5128C36.1439 37.5128 36.3374 37.4216 36.4754 37.2393C36.6134 37.057 36.6824 36.7903 36.6824 36.4393ZM39.9311 37.8885H39.4557V35.7594L38.1112 37.8885H37.6767V35.0335H38.1521V37.1294L39.4813 35.0335H39.9311V37.8885ZM42.8808 37.8885H42.4054V35.7594L41.0609 37.8885H40.6264V35.0335H41.1018V37.1294L42.4309 35.0335H42.8808V37.8885ZM45.8739 37.8885H45.2758L44.2968 36.5722H44.0566V37.8885H43.576V35.0335H44.0566V36.2757C44.181 36.274 44.2866 36.2484 44.3735 36.199C44.4621 36.1479 44.5371 36.0499 44.5985 35.9051C44.6172 35.8625 44.6377 35.813 44.6598 35.7568C44.6837 35.7006 44.7024 35.6512 44.716 35.6086C44.791 35.399 44.895 35.2507 45.0279 35.1638C45.1608 35.0769 45.3337 35.0335 45.5467 35.0335H45.6771V35.4475H45.5672C45.4326 35.4475 45.3312 35.4757 45.263 35.5319C45.1966 35.5864 45.1403 35.687 45.0943 35.8335C45.0466 35.9817 44.9904 36.0976 44.9256 36.1811C44.8609 36.2629 44.7893 36.326 44.7109 36.3703L45.8739 37.8885ZM48.5782 36.3856C48.5782 36.861 48.464 37.2402 48.2357 37.523C48.0091 37.8042 47.7219 37.9448 47.3743 37.9448C47.2329 37.9448 47.1076 37.9286 46.9986 37.8962C46.8895 37.8638 46.7779 37.8136 46.6637 37.7454V38.9416H46.1832V35.0335H46.6637V35.3325C46.783 35.2252 46.9151 35.1357 47.0599 35.0641C47.2065 34.9909 47.3658 34.9542 47.5379 34.9542C47.8651 34.9542 48.1198 35.0837 48.3022 35.3427C48.4862 35.6018 48.5782 35.9494 48.5782 36.3856ZM48.0823 36.4393C48.0823 36.1138 48.0304 35.8616 47.9264 35.6827C47.8225 35.5021 47.6538 35.4118 47.4203 35.4118C47.284 35.4118 47.1519 35.4424 47.0241 35.5038C46.898 35.5634 46.7779 35.6409 46.6637 35.7364V37.3543C46.7898 37.4157 46.8972 37.4574 46.9858 37.4796C47.0761 37.5017 47.1792 37.5128 47.2951 37.5128C47.5439 37.5128 47.7373 37.4216 47.8753 37.2393C48.0133 37.057 48.0823 36.7903 48.0823 36.4393ZM50.6716 37.1856V36.3933C50.5574 36.4035 50.4126 36.418 50.2371 36.4367C50.0633 36.4538 49.9227 36.4785 49.8153 36.5108C49.6875 36.55 49.5819 36.6105 49.4984 36.6923C49.4149 36.7724 49.3731 36.8849 49.3731 37.0297C49.3731 37.1933 49.4191 37.3169 49.5112 37.4003C49.6032 37.4838 49.7378 37.5256 49.915 37.5256C50.0667 37.5256 50.2038 37.4932 50.3265 37.4285C50.4492 37.362 50.5642 37.2811 50.6716 37.1856ZM50.6716 37.5844C50.6324 37.6134 50.5796 37.6542 50.5131 37.7071C50.4484 37.7582 50.3853 37.7991 50.324 37.8298C50.2388 37.8741 50.1561 37.9081 50.076 37.932C49.9977 37.9559 49.8869 37.9678 49.7438 37.9678C49.6262 37.9678 49.5146 37.9456 49.4089 37.9013C49.3033 37.857 49.2104 37.7948 49.1303 37.7147C49.0536 37.6364 48.9923 37.5401 48.9463 37.4259C48.9003 37.31 48.8773 37.1882 48.8773 37.0604C48.8773 36.8627 48.919 36.6949 49.0025 36.5569C49.086 36.4171 49.2181 36.3064 49.3987 36.2246C49.5589 36.1513 49.748 36.101 49.9661 36.0738C50.1842 36.0448 50.4194 36.0235 50.6716 36.0099V35.9178C50.6716 35.8054 50.6546 35.7151 50.6205 35.6469C50.5864 35.577 50.5387 35.5234 50.4773 35.4859C50.416 35.4467 50.341 35.4211 50.2524 35.4092C50.1638 35.3956 50.0726 35.3887 49.9789 35.3887C49.8682 35.3887 49.7378 35.4058 49.5878 35.4399C49.4379 35.4722 49.2879 35.52 49.138 35.583H49.1099V35.0948C49.1985 35.0692 49.3254 35.0411 49.4907 35.0105C49.656 34.9798 49.8196 34.9644 49.9815 34.9644C50.1774 34.9644 50.3427 34.9798 50.4773 35.0105C50.612 35.0411 50.7329 35.0965 50.8403 35.1766C50.9442 35.255 51.0218 35.3564 51.0729 35.4808C51.124 35.6052 51.1496 35.7568 51.1496 35.9357V37.8885H50.6716V37.5844ZM52.9618 37.9525C52.7658 37.9525 52.5861 37.9226 52.4225 37.863C52.2589 37.8016 52.1183 37.7096 52.0007 37.5869C51.8832 37.4642 51.792 37.31 51.7272 37.1243C51.6625 36.9369 51.6301 36.717 51.6301 36.4648C51.6301 36.2143 51.6633 35.9979 51.7298 35.8156C51.798 35.6333 51.8883 35.4799 52.0007 35.3555C52.1132 35.2311 52.2529 35.1357 52.4199 35.0692C52.5886 35.0011 52.7692 34.967 52.9618 34.967C53.1186 34.967 53.2694 34.9892 53.4142 35.0335C53.5608 35.0778 53.6911 35.1289 53.8053 35.1868V35.7261H53.7772C53.7431 35.6972 53.6988 35.6639 53.6443 35.6265C53.5914 35.589 53.5267 35.5506 53.45 35.5114C53.3835 35.4774 53.3052 35.4475 53.2148 35.422C53.1245 35.3964 53.0376 35.3836 52.9541 35.3836C52.7053 35.3836 52.5051 35.4782 52.3535 35.6674C52.2035 35.8548 52.1285 36.1206 52.1285 36.4648C52.1285 36.8022 52.201 37.0655 52.3458 37.2547C52.4923 37.4421 52.6951 37.5358 52.9541 37.5358C53.1109 37.5358 53.26 37.5034 53.4014 37.4387C53.5429 37.3739 53.6681 37.2904 53.7772 37.1882H53.8053V37.7275C53.7576 37.7497 53.6979 37.7769 53.6264 37.8093C53.5548 37.84 53.49 37.863 53.4321 37.8783C53.3503 37.9022 53.277 37.9201 53.2123 37.932C53.1475 37.9456 53.064 37.9525 52.9618 37.9525ZM56.5939 36.4623C56.5939 36.9428 56.4781 37.3143 56.2463 37.5767C56.0146 37.8374 55.7061 37.9678 55.321 37.9678C54.924 37.9678 54.6113 37.8332 54.383 37.5639C54.1563 37.293 54.043 36.9258 54.043 36.4623C54.043 35.9852 54.1597 35.6145 54.3932 35.3504C54.6283 35.0863 54.9376 34.9542 55.321 34.9542C55.7061 34.9542 56.0146 35.0863 56.2463 35.3504C56.4781 35.6128 56.5939 35.9835 56.5939 36.4623ZM56.0981 36.4623C56.0981 36.0925 56.0307 35.8182 55.8961 35.6392C55.7615 35.4586 55.5698 35.3683 55.321 35.3683C55.0705 35.3683 54.8771 35.4586 54.7408 35.6392C54.6062 35.8182 54.5389 36.0925 54.5389 36.4623C54.5389 36.8201 54.6062 37.0919 54.7408 37.2777C54.8771 37.4617 55.0705 37.5537 55.321 37.5537C55.5681 37.5537 55.759 37.4634 55.8936 37.2828C56.0299 37.1004 56.0981 36.8269 56.0981 36.4623ZM59.173 35.4552H58.2017V37.8885H57.7211V35.4552H56.7498V35.0335H59.173V35.4552ZM61.6498 37.0042C61.6498 37.1422 61.6216 37.2674 61.5654 37.3799C61.5109 37.4924 61.4359 37.5835 61.3405 37.6534C61.228 37.7386 61.1079 37.7991 60.9801 37.8349C60.8523 37.8707 60.6878 37.8885 60.4868 37.8885H59.5308V35.0335H60.0113V36.1453H60.4995C60.7143 36.1453 60.8804 36.1564 60.998 36.1786C61.1173 36.2007 61.2357 36.2552 61.3533 36.3421C61.4521 36.4154 61.5262 36.5091 61.5756 36.6233C61.6251 36.7375 61.6498 36.8644 61.6498 37.0042ZM61.1539 37.0118C61.1539 36.9249 61.1386 36.8491 61.1079 36.7843C61.0789 36.7179 61.0304 36.6642 60.9622 36.6233C60.8906 36.5807 60.8088 36.5552 60.7168 36.5466C60.6265 36.5381 60.4961 36.5339 60.3257 36.5339H60.0113V37.5051H60.3155C60.4859 37.5051 60.618 37.4983 60.7117 37.4847C60.8054 37.4694 60.8864 37.4412 60.9545 37.4003C61.0244 37.356 61.0747 37.3041 61.1053 37.2444C61.1377 37.1831 61.1539 37.1056 61.1539 37.0118ZM62.4626 37.8885H61.982V35.0335H62.4626V37.8885Z" fill="#090909"/>
</svg>
