<svg width="41" height="46" viewBox="0 0 41 46" fill="none" xmlns="http://www.w3.org/2000/svg">
<path d="M40.1696 22.3644V12.7046C40.1696 11.8974 39.74 11.1522 39.0413 10.7492L21.2553 0.480415C20.5566 0.0773699 19.6963 0.0773699 18.9976 0.480415L1.21156 10.7492C0.512872 11.1522 0.083252 11.8974 0.083252 12.7046V24.8104V29.3247H4.59758H8.39883C9.16506 29.3247 9.87924 28.9361 10.2956 28.2916L16.0899 19.3183V29.5617C16.0899 30.5626 16.7487 31.4429 17.7076 31.7264C17.9191 31.7895 18.1339 31.8194 18.3465 31.8194C19.0983 31.8194 19.8181 31.4429 20.2422 30.7885L25.3754 22.8583L25.3799 27.0293C25.381 28.275 26.3908 29.2848 27.6365 29.2848H35.6553V31.939L20.1259 40.9045L4.59758 31.939V31.8194H0.083252V33.2422C0.083252 34.0483 0.512872 34.7935 1.21156 35.1965L18.9976 45.4664C19.3464 45.668 19.7361 45.7687 20.1259 45.7687C20.5156 45.7687 20.9054 45.668 21.2553 45.4664L39.0413 35.1965C39.74 34.7935 40.1696 34.0483 40.1696 33.2422V29.2848V24.7705H35.6553H29.892L29.882 15.227C29.882 14.2271 29.2232 13.3468 28.2632 13.0645C27.3054 12.7821 26.2734 13.163 25.7309 14.0035L20.6042 21.9215V11.6627C20.6042 10.6617 19.9454 9.78145 18.9854 9.49799C18.0254 9.21453 16.9934 9.59765 16.4509 10.4381L7.16976 24.8104H4.59758V14.0068L20.1259 5.04124L35.6553 14.0068V22.3644H40.1696V22.3644Z" fill="#734D76"/>
</svg>
