<svg width="70" height="70" viewBox="0 0 70 70" fill="none" xmlns="http://www.w3.org/2000/svg">
<path d="M26.9945 1.42888C-3.8773 9.14316 -8.90294 51.0003 19.2407 65.4289C39.1996 75.8574 63.6099 64.7146 68.9227 42.7146C74.8099 18.1432 51.6919 -4.71398 26.9945 1.42888ZM35.7535 11.4289C40.6355 14.0003 38.3381 14.7146 31.5894 12.7146C22.8304 10.0003 21.5381 12.286 21.5381 31.0003C21.5381 39.1432 21.9689 45.7146 22.3996 45.7146C22.974 45.7146 25.5586 43.8574 28.2868 41.4289C36.9022 33.8574 41.7842 36.7146 38.0509 47.1432C35.3227 55.0003 37.7637 55.7146 43.9381 49.1432C54.2766 37.8574 59.3022 20.7146 53.8458 15.1432C51.1176 12.4289 51.1176 11.286 53.8458 12.4289C55.1381 12.8574 57.1483 15.1432 58.2971 17.5717C62.6048 25.8574 57.0048 43.0003 45.8048 55.0003C40.7791 60.4289 38.9124 61.5717 35.3227 61.1432C31.015 60.7146 30.8714 60.4289 31.015 53.8574V47.0003L25.9894 52.8574C17.8048 62.0003 16.5124 59.8574 16.656 36.8574C16.656 26.4289 17.0868 16.0003 17.6612 13.8574C19.3842 7.42887 26.4201 6.42887 35.7535 11.4289Z" fill="#008400"/>
</svg>
